module/expand.vcd
$date
	Mon Jun 22 23:41:15 2015
$end
$version
	Icarus Verilog
$end
$timescale
	1ns
$end
$scope module test $end
$var wire 128 ! EXKEY [127:0] $end
$var reg 128 " KEY [127:0] $end
$var reg 8 # count [7:0] $end
$scope module ex $end
$var wire 8 $ count [7:0] $end
$var wire 128 % in [127:0] $end
$var wire 32 & in0 [31:0] $end
$var wire 32 ' in1 [31:0] $end
$var wire 32 ( in2 [31:0] $end
$var wire 32 ) in3 [31:0] $end
$var wire 128 * out [127:0] $end
$var wire 32 + out0 [31:0] $end
$var wire 32 , out1 [31:0] $end
$var wire 32 - out2 [31:0] $end
$var wire 32 . out3 [31:0] $end
$var wire 32 / rc [31:0] $end
$var wire 32 0 rt [31:0] $end
$var wire 32 1 rw [31:0] $end
$var wire 32 2 sw [31:0] $end
$scope module sub $end
$var wire 32 3 x [31:0] $end
$var wire 8 4 x0 [7:0] $end
$var wire 8 5 x1 [7:0] $end
$var wire 8 6 x2 [7:0] $end
$var wire 8 7 x3 [7:0] $end
$var wire 32 8 y [31:0] $end
$var wire 8 9 y0 [7:0] $end
$var wire 8 : y1 [7:0] $end
$var wire 8 ; y2 [7:0] $end
$var wire 8 < y3 [7:0] $end
$scope module sub0 $end
$var wire 8 = x [7:0] $end
$var reg 8 > y [7:0] $end
$upscope $end
$scope module sub1 $end
$var wire 8 ? x [7:0] $end
$var reg 8 @ y [7:0] $end
$upscope $end
$scope module sub2 $end
$var wire 8 A x [7:0] $end
$var reg 8 B y [7:0] $end
$upscope $end
$scope module sub3 $end
$var wire 8 C x [7:0] $end
$var reg 8 D y [7:0] $end
$upscope $end
$upscope $end
$upscope $end
$upscope $end
$enddefinitions $end
#0
$dumpvars
b10101110 D
b10111110 C
b101111 B
b1001110 A
b10001000 @
b10010111 ?
b1110001 >
b101100 =
b10101110 <
b101111 ;
b10001000 :
b1110001 9
b1110001100010000010111110101110 8
b10111110 7
b1001110 6
b10010111 5
b101100 4
b101100100101110100111010111110 3
b1110001100010000010111110101110 2
b101100100101110100111010111110 1
b1000111100010000010111110101110 0
b110110000000000000000000000000 /
b10111110001011001001011101001110 .
b10000100100111110110110011100 -
b11110000100001010101011101101000 ,
b1010100100110010011001011010001 +
b1010100100110010011001011010001111100001000010101010111011010000001000010010011111011011001110010111110001011001001011101001110 *
b1001101001010110011000011000101 )
b11110011000001111010011110001011 (
b11100011100101000100101000010111 '
b10011000100010001110101111111 &
b10011000100010001110101111111111000111001010001001010000101111111001100000111101001111000101101001101001010110011000011000101 %
b1010 $
b1010 #
b10011000100010001110101111111111000111001010001001010000101111111001100000111101001111000101101001101001010110011000011000101 "
b1010100100110010011001011010001111100001000010101010111011010000001000010010011111011011001110010111110001011001001011101001110 !
$end
#200
b1000 >
b1000 9
b11011010 @
b11011010 :
b10110101 B
b10110101 ;
b11100100 D
b1000110110101011010111100100 2
b1000110110101011010111100100 8
b11100100 <
b10111111 4
b10111111 =
b1111010 5
b1111010 ?
b11010010 6
b11010010 A
b10101110 7
b10101110 C
b10111111011110101101001010101110 1
b10111111011110101101001010101110 3
b10011110110101011010111100100 0
b1000111010000111000011100110101 +
b10100100000111000110010110111001 ,
b11100000000101101011101011110100 -
b10101110101111110111101011010010 .
b1000111010000111000011100110101101001000001110001100101101110011110000000010110101110101111010010101110101111110111101011010010 !
b1000111010000111000011100110101101001000001110001100101101110011110000000010110101110101111010010101110101111110111101011010010 *
b11011000000000000000000000000 /
b1010100100110010011001011010001 &
b11110000100001010101011101101000 '
b10000100100111110110110011100 (
b10111110001011001001011101001110 )
b1001 #
b1001 $
b1010100100110010011001011010001111100001000010101010111011010000001000010010011111011011001110010111110001011001001011101001110 "
b1010100100110010011001011010001111100001000010101010111011010000001000010010011111011011001110010111110001011001001011101001110 %
#300
b11010011 >
b11010011 9
b10111010 @
b10111010 :
b11110111 B
b11110111 ;
b101111 D
b11010011101110101111011100101111 2
b11010011101110101111011100101111 8
b101111 <
b10101001 4
b10101001 =
b11000000 5
b11000000 ?
b100110 6
b100110 A
b1001110 7
b1001110 C
b10101001110000000010011001001110 1
b10101001110000000010011001001110 3
b1010011101110101111011100101111 0
b10100111110010111000000011010 +
b11100011010111111110001010001100 ,
b1000100000010101101111101001101 -
b1001110101010011100000000100110 .
b10100111110010111000000011010111000110101111111100010100011000100010000001010110111110100110101001110101010011100000000100110 !
b10100111110010111000000011010111000110101111111100010100011000100010000001010110111110100110101001110101010011100000000100110 *
b10000000000000000000000000000000 /
b1000111010000111000011100110101 &
b10100100000111000110010110111001 '
b11100000000101101011101011110100 (
b10101110101111110111101011010010 )
b1000 #
b1000 $
b1000111010000111000011100110101101001000001110001100101101110011110000000010110101110101111010010101110101111110111101011010010 "
b1000111010000111000011100110101101001000001110001100101101110011110000000010110101110101111010010101110101111110111101011010010 %
#400
b1010 >
b1010 9
b11000000 @
b11000000 :
b1111111 B
b1111111 ;
b1100111 D
b1010110000000111111101100111 2
b1010110000000111111101100111 8
b1100111 <
b10100011 4
b10100011 =
b11111 5
b11111 ?
b1101011 6
b1101011 A
b1010 7
b1010 C
b10100011000111110110101100001010 1
b10100011000111110110101100001010 3
b1001010110000000111111101100111 0
b1011110001110010000111101111101 +
b11110111101001101001001010010110 ,
b10100111010101010011110111000001 -
b1010101000110001111101101011 .
b1011110001110010000111101111101111101111010011010010010100101101010011101010101001111011100000100001010101000110001111101101011 !
b1011110001110010000111101111101111101111010011010010010100101101010011101010101001111011100000100001010101000110001111101101011 *
b1000000000000000000000000000000 /
b10100111110010111000000011010 &
b11100011010111111110001010001100 '
b1000100000010101101111101001101 (
b1001110101010011100000000100110 )
b111 #
b111 $
b10100111110010111000000011010111000110101111111100010100011000100010000001010110111110100110101001110101010011100000000100110 "
b10100111110010111000000011010111000110101111111100010100011000100010000001010110111110100110101001110101010011100000000100110 %
#500
b1000010 >
b1000010 9
b10010011 @
b10010011 :
b10101100 B
b10101100 ;
b10010101 D
b1000010100100111010110010010101 2
b1000010100100111010110010010101 8
b10010101 <
b11110110 4
b11110110 =
b100010 5
b100010 ?
b10101010 6
b10101010 A
b10101101 7
b10101101 C
b11110110001000101010101010101101 1
b11110110001000101010101010101101 3
b1100010100100111010110010010101 0
b111100101010101010001111101000 +
b10101001100111111001110111101011 ,
b1010000111100111010111101010111 -
b10101101111101100010001010101010 .
b111100101010101010001111101000101010011001111110011101111010110101000011110011101011110101011110101101111101100010001010101010 !
b111100101010101010001111101000101010011001111110011101111010110101000011110011101011110101011110101101111101100010001010101010 *
b100000000000000000000000000000 /
b1011110001110010000111101111101 &
b11110111101001101001001010010110 '
b10100111010101010011110111000001 (
b1010101000110001111101101011 )
b110 #
b110 $
b1011110001110010000111101111101111101111010011010010010100101101010011101010101001111011100000100001010101000110001111101101011 "
b1011110001110010000111101111101111101111010011010010010100101101010011101010101001111011100000100001010101000110001111101101011 %
#600
b1101011 >
b1101011 9
b1011101 @
b1011101 :
b1010100 B
b1010100 ;
b1010100 D
b1101011010111010101010001010100 2
b1101011010111010101010001010100 8
b1010100 <
b101 4
b101 =
b10001101 5
b10001101 ?
b11111101 6
b11111101 A
b11111101 7
b11111101 C
b101100011011111110111111101 1
b101100011011111110111111101 3
b1111011010111010101010001010100 0
b1000111111101111111011110111100 +
b10010101001101010011111000000011 ,
b11111001011011000011001010111100 -
b11111101000001011000110111111101 .
b1000111111101111111011110111100100101010011010100111110000000111111100101101100001100101011110011111101000001011000110111111101 !
b1000111111101111111011110111100100101010011010100111110000000111111100101101100001100101011110011111101000001011000110111111101 *
b10000000000000000000000000000 /
b111100101010101010001111101000 &
b10101001100111111001110111101011 '
b1010000111100111010111101010111 (
b10101101111101100010001010101010 )
b101 #
b101 $
b111100101010101010001111101000101010011001111110011101111010110101000011110011101011110101011110101101111101100010001010101010 "
b111100101010101010001111101000101010011001111110011101111010110101000011110011101011110101011110101101111101100010001010101010 %
#700
b11111001 >
b11111001 9
b1000 @
b1000 :
b10000011 B
b10000011 ;
b11110010 D
b11111001000010001000001111110010 2
b11111001000010001000001111110010 8
b11110010 <
b1101001 4
b1101001 =
b10111111 5
b10111111 ?
b1000001 6
b1000001 A
b100 7
b100 C
b1101001101111110100000100000100 1
b1101001101111110100000100000100 3
b11110001000010001000001111110010 0
b10110110111111110111010001001110 +
b11010010110000101100100110111111 ,
b1101100010110010000110010111111 -
b100011010011011111101000001 .
b10110110111111110111010001001110110100101100001011001001101111110110110001011001000011001011111100000100011010011011111101000001 !
b10110110111111110111010001001110110100101100001011001001101111110110110001011001000011001011111100000100011010011011111101000001 *
b1000000000000000000000000000 /
b1000111111101111111011110111100 &
b10010101001101010011111000000011 '
b11111001011011000011001010111100 (
b11111101000001011000110111111101 )
b100 #
b100 $
b1000111111101111111011110111100100101010011010100111110000000111111100101101100001100101011110011111101000001011000110111111101 "
b1000111111101111111011110111100100101010011010100111110000000111111100101101100001100101011110011111101000001011000110111111101 %
#800
b100 >
b100 9
b1101101 @
b1101101 :
b10111011 B
b10111011 ;
b1000101 D
b100011011011011101101000101 2
b100011011011011101101000101 8
b1000101 <
b110000 4
b110000 =
b10110011 5
b10110011 ?
b11111110 6
b11111110 A
b1101000 7
b1101000 C
b110000101100111111111001101000 1
b110000101100111111111001101000 3
b11011011011101101000101 0
b10110110100100101100111100001011 +
b1100100001111011011110111110001 ,
b10111110100110111100010100000000 -
b1101000001100001011001111111110 .
b10110110100100101100111100001011011001000011110110111101111100011011111010011011110001010000000001101000001100001011001111111110 !
b10110110100100101100111100001011011001000011110110111101111100011011111010011011110001010000000001101000001100001011001111111110 *
b100000000000000000000000000 /
b10110110111111110111010001001110 &
b11010010110000101100100110111111 '
b1101100010110010000110010111111 (
b100011010011011111101000001 )
b11 #
b11 $
b10110110111111110111010001001110110100101100001011001001101111110110110001011001000011001011111100000100011010011011111101000001 "
b10110110111111110111010001001110110100101100001011001001101111110110110001011001000011001011111100000100011010011011111101000001 %
#900
b1100010 >
b1100010 9
b111000 @
b111000 :
b11110110 D
b1100010001110001011101111110110 2
b1100010001110001011101111110110 8
b11110110 <
b10101011 4
b10101011 =
b1110110 5
b1110110 ?
b11010110 7
b11010110 C
b10101011011101101111111011010110 1
b10101011011101101111111011010110 3
b1100000001110001011101111110110 0
b11010110101010100111010011111101 +
b11010010101011110111001011111010 ,
b11011010101001100111100011110001 -
b11010110101010110111011011111110 .
b11010110101010100111010011111101110100101010111101110010111110101101101010100110011110001111000111010110101010110111011011111110 !
b11010110101010100111010011111101110100101010111101110010111110101101101010100110011110001111000111010110101010110111011011111110 *
b10000000000000000000000000 /
b10110110100100101100111100001011 &
b1100100001111011011110111110001 '
b10111110100110111100010100000000 (
b1101000001100001011001111111110 )
b10 #
b10 $
b10110110100100101100111100001011011001000011110110111101111100011011111010011011110001010000000001101000001100001011001111111110 "
b10110110100100101100111100001011011001000011110110111101111100011011111010011011110001010000000001101000001100001011001111111110 %
#1000
b11010111 >
b11010111 9
b10101011 @
b10101011 :
b1110110 B
b1110110 ;
b11111110 D
b11010111101010110111011011111110 2
b11010111101010110111011011111110 8
b11111110 <
b1101 4
b1101 =
b1110 5
b1110 ?
b1111 6
b1111 A
b1100 7
b1100 C
b1101000011100000111100001100 1
b1101000011100000111100001100 3
b11010110101010110111011011111110 0
b10000001000000011 +
b100000001010000011000000111 ,
b1000000010010000101000001011 -
b1100000011010000111000001111 .
b10000001000000011000001000000010100000110000001110000100000001001000010100000101100001100000011010000111000001111 !
b10000001000000011000001000000010100000110000001110000100000001001000010100000101100001100000011010000111000001111 *
b1000000000000000000000000 /
b11010110101010100111010011111101 &
b11010010101011110111001011111010 '
b11011010101001100111100011110001 (
b11010110101010110111011011111110 )
b1 #
b1 $
b11010110101010100111010011111101110100101010111101110010111110101101101010100110011110001111000111010110101010110111011011111110 "
b11010110101010100111010011111101110100101010111101110010111110101101101010100110011110001111000111010110101010110111011011111110 %
