work/add.vcd
$date
	Wed Jun 17 13:57:00 2015
$end
$version
	Icarus Verilog
$end
$timescale
	1ns
$end
$scope module test $end
$var wire 128 ! exkey [127:0] $end
$var reg 8 " count [7:0] $end
$var integer 32 # i [31:0] $end
$var reg 128 $ key [127:0] $end
$scope module expand $end
$var wire 8 % count [7:0] $end
$var wire 128 & in [127:0] $end
$var wire 32 ' in0 [31:0] $end
$var wire 32 ( in1 [31:0] $end
$var wire 32 ) in2 [31:0] $end
$var wire 32 * in3 [31:0] $end
$var wire 128 + out [127:0] $end
$var wire 32 , out0 [31:0] $end
$var wire 32 - out1 [31:0] $end
$var wire 32 . out2 [31:0] $end
$var wire 32 / out3 [31:0] $end
$var wire 32 0 rc [31:0] $end
$var wire 32 1 rt [31:0] $end
$var wire 32 2 rw [31:0] $end
$var wire 32 3 sw [31:0] $end
$scope module rcon $end
$var wire 8 4 count [7:0] $end
$var wire 32 5 out [31:0] $end
$upscope $end
$scope module ls $end
$var wire 32 6 in [31:0] $end
$var wire 8 7 num [7:0] $end
$var wire 32 8 out [31:0] $end
$scope function FUNC_SHIFT $end
$var reg 32 9 FUNC_SHIFT [31:0] $end
$var reg 32 : in [31:0] $end
$var reg 8 ; num [7:0] $end
$upscope $end
$upscope $end
$scope module sub $end
$var wire 32 < x [31:0] $end
$var wire 8 = x0 [7:0] $end
$var wire 8 > x1 [7:0] $end
$var wire 8 ? x2 [7:0] $end
$var wire 8 @ x3 [7:0] $end
$var wire 32 A y [31:0] $end
$var wire 8 B y0 [7:0] $end
$var wire 8 C y1 [7:0] $end
$var wire 8 D y2 [7:0] $end
$var wire 8 E y3 [7:0] $end
$scope module sub0 $end
$var wire 8 F x [7:0] $end
$var reg 8 G y [7:0] $end
$upscope $end
$scope module sub1 $end
$var wire 8 H x [7:0] $end
$var reg 8 I y [7:0] $end
$upscope $end
$scope module sub2 $end
$var wire 8 J x [7:0] $end
$var reg 8 K y [7:0] $end
$upscope $end
$scope module sub3 $end
$var wire 8 L x [7:0] $end
$var reg 8 M y [7:0] $end
$upscope $end
$upscope $end
$upscope $end
$upscope $end
$enddefinitions $end
#0
$dumpvars
b11111110 M
b1100 L
b1110110 K
b1111 J
b10101011 I
b1110 H
b11010111 G
b1101 F
b11111110 E
b1110110 D
b10101011 C
b11010111 B
b11010111101010110111011011111110 A
b1100 @
b1111 ?
b1110 >
b1101 =
b1101000011100000111100001100 <
b1 ;
b1100000011010000111000001111 :
b1101000011100000111100001100 9
b1101000011100000111100001100 8
b1 7
b1100000011010000111000001111 6
b1000000000000000000000000 5
b1 4
b11010111101010110111011011111110 3
b1101000011100000111100001100 2
b11010110101010110111011011111110 1
b1000000000000000000000000 0
b11010111101010110111011011111110 /
b11011011101001100111100011110001 .
b11010011101011110111001011111010 -
b11010111101010100111010011111101 ,
b11010111101010100111010011111101110100111010111101110010111110101101101110100110011110001111000111010111101010110111011011111110 +
b1100000011010000111000001111 *
b1000000010010000101000001011 )
b100000001010000011000000111 (
b1000000010000001000000011 '
b1000000010000001000000011000001000000010100000110000001110000100000001001000010100000101100001100000011010000111000001111 &
b1 %
b1000000010000001000000011000001000000010100000110000001110000100000001001000010100000101100001100000011010000111000001111 $
b0 #
b1 "
b11010111101010100111010011111101110100111010111101110010111110101101101110100110011110001111000111010111101010110111011011111110 !
$end
#100
b1100010 G
b1100010 B
b111000 I
b111000 C
b10111011 K
b10111011 D
b1110 M
b1100010001110001011101100001110 3
b1100010001110001011101100001110 A
b1110 E
b10101011 =
b10101011 F
b1110110 >
b1110110 H
b11111110 ?
b11111110 J
b11010111 @
b11010111 L
b10110111100100101100111111110011 ,
b1100100001111011011110100001001 -
b10111111100110111100010111111000 .
b10101011011101101111111011010111 2
b10101011011101101111111011010111 8
b10101011011101101111111011010111 <
b10101011011101101111111011010111 9
b11010111101010110111011011111110 :
b1101000001100001011001100000110 /
b10110111100100101100111111110011011001000011110110111101000010011011111110011011110001011111100001101000001100001011001100000110 !
b10110111100100101100111111110011011001000011110110111101000010011011111110011011110001011111100001101000001100001011001100000110 +
b1100000001110001011101100001110 1
b11010111101010100111010011111101 '
b11010011101011110111001011111010 (
b11011011101001100111100011110001 )
b11010111101010110111011011111110 *
b11010111101010110111011011111110 6
b10000000000000000000000000 0
b10000000000000000000000000 5
b1 #
b11010111101010100111010011111101110100111010111101110010111110101101101110100110011110001111000111010111101010110111011011111110 $
b11010111101010100111010011111101110100111010111101110010111110101101101110100110011110001111000111010111101010110111011011111110 &
b10 "
b10 %
b10 4
#200
b100 G
b100 B
b1101101 I
b1101101 C
b1101111 K
b1101111 D
b1000101 M
b100011011010110111101000101 3
b100011011010110111101000101 A
b1000101 E
b110000 =
b110000 F
b10110011 >
b10110011 H
b110 ?
b110 J
b1101000 @
b1101000 L
b10110111111111111010000010110110 ,
b11010011110000100001110110111111 -
b1101100010110011101100001000111 .
b110000101100110000011001101000 2
b110000101100110000011001101000 8
b110000101100110000011001101000 <
b110000101100110000011001101000 9
b1101000001100001011001100000110 :
b100011010010110101101000001 /
b10110111111111111010000010110110110100111100001000011101101111110110110001011001110110000100011100000100011010010110101101000001 !
b10110111111111111010000010110110110100111100001000011101101111110110110001011001110110000100011100000100011010010110101101000001 +
b11011010110111101000101 1
b10110111100100101100111111110011 '
b1100100001111011011110100001001 (
b10111111100110111100010111111000 )
b1101000001100001011001100000110 *
b1101000001100001011001100000110 6
b100000000000000000000000000 0
b100000000000000000000000000 5
b10 #
b10110111100100101100111111110011011001000011110110111101000010011011111110011011110001011111100001101000001100001011001100000110 $
b10110111100100101100111111110011011001000011110110111101000010011011111110011011110001011111100001101000001100001011001100000110 &
b11 "
b11 %
b11 4
#300
b11111001 G
b11111001 B
b1111111 I
b1111111 C
b10000011 K
b10000011 D
b11110010 M
b11111001011111111000001111110010 3
b11111001011111111000001111110010 A
b11110010 E
b1101001 =
b1101001 F
b1101011 >
b1101011 H
b1000001 ?
b1000001 J
b100 @
b100 L
b1000110100000000010001101000100 ,
b10010101010000100011111011111011 -
b11111001000110111110011010111100 .
b1101001011010110100000100000100 2
b1101001011010110100000100000100 8
b1101001011010110100000100000100 <
b1101001011010110100000100000100 9
b100011010010110101101000001 :
b11111101011100101000110111111101 /
b1000110100000000010001101000100100101010100001000111110111110111111100100011011111001101011110011111101011100101000110111111101 !
b1000110100000000010001101000100100101010100001000111110111110111111100100011011111001101011110011111101011100101000110111111101 +
b11110001011111111000001111110010 1
b10110111111111111010000010110110 '
b11010011110000100001110110111111 (
b1101100010110011101100001000111 )
b100011010010110101101000001 *
b100011010010110101101000001 6
b1000000000000000000000000000 0
b1000000000000000000000000000 5
b11 #
b10110111111111111010000010110110110100111100001000011101101111110110110001011001110110000100011100000100011010010110101101000001 $
b10110111111111111010000010110110110100111100001000011101101111110110110001011001110110000100011100000100011010010110101101000001 &
b100 "
b100 %
b100 4
#400
b1000000 G
b1000000 B
b1011101 I
b1011101 C
b1010100 K
b1010100 D
b1010100 M
b1000000010111010101010001010100 3
b1000000010111010101010001010100 A
b1010100 E
b1110010 =
b1110010 F
b10001101 >
b10001101 H
b11111101 ?
b11111101 J
b11111101 @
b11111101 L
b10110110111010111011100010000 ,
b10000011100111110100100111101011 -
b1111010100001001010111101010111 .
b1110010100011011111110111111101 2
b1110010100011011111110111111101 8
b1110010100011011111110111111101 <
b1110010100011011111110111111101 9
b11111101011100101000110111111101 :
b10000111111101100010001010101010 /
b10110110111010111011100010000100000111001111101001001111010110111101010000100101011110101011110000111111101100010001010101010 !
b10110110111010111011100010000100000111001111101001001111010110111101010000100101011110101011110000111111101100010001010101010 +
b1010000010111010101010001010100 1
b1000110100000000010001101000100 '
b10010101010000100011111011111011 (
b11111001000110111110011010111100 )
b11111101011100101000110111111101 *
b11111101011100101000110111111101 6
b10000000000000000000000000000 0
b10000000000000000000000000000 5
b100 #
b1000110100000000010001101000100100101010100001000111110111110111111100100011011111001101011110011111101011100101000110111111101 $
b1000110100000000010001101000100100101010100001000111110111110111111100100011011111001101011110011111101011100101000110111111101 &
b101 "
b101 %
b101 4
#500
b1000010 G
b1000010 B
b10010011 I
b10010011 C
b10101100 K
b10101100 D
b10111 M
b1000010100100111010110000010111 3
b1000010100100111010110000010111 A
b10111 E
b11110110 =
b11110110 F
b100010 >
b100010 H
b10101010 ?
b10101010 J
b10000111 @
b10000111 L
b1110100010011101101101100000111 ,
b11110111110100011001001011101100 -
b10001101010101010011110110111011 .
b11110110001000101010101010000111 2
b11110110001000101010101010000111 8
b11110110001000101010101010000111 <
b11110110001000101010101010000111 9
b10000111111101100010001010101010 :
b1010101000110001111100010001 /
b1110100010011101101101100000111111101111101000110010010111011001000110101010101001111011011101100001010101000110001111100010001 !
b1110100010011101101101100000111111101111101000110010010111011001000110101010101001111011011101100001010101000110001111100010001 +
b1100010100100111010110000010111 1
b10110110111010111011100010000 '
b10000011100111110100100111101011 (
b1111010100001001010111101010111 )
b10000111111101100010001010101010 *
b10000111111101100010001010101010 6
b100000000000000000000000000000 0
b100000000000000000000000000000 5
b101 #
b10110110111010111011100010000100000111001111101001001111010110111101010000100101011110101011110000111111101100010001010101010 $
b10110110111010111011100010000100000111001111101001001111010110111101010000100101011110101011110000111111101100010001010101010 &
b110 "
b110 %
b110 4
#600
b1010 G
b1010 B
b11000000 I
b11000000 C
b10000010 K
b10000010 D
b1100111 M
b1010110000001000001001100111 3
b1010110000001000001001100111 A
b1100111 E
b10100011 =
b10100011 F
b11111 >
b11111 H
b10001 ?
b10001 J
b1010 @
b1010 L
b111110100011100101100101100000 ,
b11001001010111111100101110001100 -
b1000100000010101111011000110111 .
b10100011000111110001000100001010 2
b10100011000111110001000100001010 8
b10100011000111110001000100001010 <
b10100011000111110001000100001010 9
b1010101000110001111100010001 :
b1001110101010011110100100100110 /
b111110100011100101100101100000110010010101111111001011100011000100010000001010111101100011011101001110101010011110100100100110 !
b111110100011100101100101100000110010010101111111001011100011000100010000001010111101100011011101001110101010011110100100100110 +
b1001010110000001000001001100111 1
b1110100010011101101101100000111 '
b11110111110100011001001011101100 (
b10001101010101010011110110111011 )
b1010101000110001111100010001 *
b1010101000110001111100010001 6
b1000000000000000000000000000000 0
b1000000000000000000000000000000 5
b110 #
b1110100010011101101101100000111111101111101000110010010111011001000110101010101001111011011101100001010101000110001111100010001 $
b1110100010011101101101100000111111101111101000110010010111011001000110101010101001111011011101100001010101000110001111100010001 &
b111 "
b111 %
b111 4
#700
b11010011 G
b11010011 B
b11110 I
b11110 C
b11110111 K
b11110111 D
b101111 M
b11010011000111101111011100101111 3
b11010011000111101111011100101111 A
b101111 E
b10101001 =
b10101001 F
b11101001 >
b11101001 H
b100110 ?
b100110 J
b1001110 @
b1001110 L
b1101101100100001010111001001111 ,
b10100100110011110110010111000011 -
b11100000110001011001001111110100 .
b10101001111010010010011001001110 2
b10101001111010010010011001001110 8
b10101001111010010010011001001110 <
b10101001111010010010011001001110 9
b1001110101010011110100100100110 :
b10101110011011000111101011010010 /
b1101101100100001010111001001111101001001100111101100101110000111110000011000101100100111111010010101110011011000111101011010010 !
b1101101100100001010111001001111101001001100111101100101110000111110000011000101100100111111010010101110011011000111101011010010 +
b1010011000111101111011100101111 1
b111110100011100101100101100000 '
b11001001010111111100101110001100 (
b1000100000010101111011000110111 )
b1001110101010011110100100100110 *
b1001110101010011110100100100110 6
b10000000000000000000000000000000 0
b10000000000000000000000000000000 5
b111 #
b111110100011100101100101100000110010010101111111001011100011000100010000001010111101100011011101001110101010011110100100100110 $
b111110100011100101100101100000110010010101111111001011100011000100010000001010111101100011011101001110101010011110100100100110 &
b1000 "
b1000 %
b1000 4
#800
b1010000 G
b1010000 B
b11011010 I
b11011010 C
b10110101 K
b10110101 D
b11100100 M
b1010000110110101011010111100100 3
b1010000110110101011010111100100 A
b11100100 E
b1101100 =
b1101100 F
b1111010 >
b1111010 H
b11010010 ?
b11010010 J
b10101110 @
b10101110 L
b100110010010100001101110101011 ,
b10000010100001010111111001101000 -
b1100010010000001110110110011100 .
b1101100011110101101001010101110 2
b1101100011110101101001010101110 8
b1101100011110101101001010101110 <
b1101100011110101101001010101110 9
b10101110011011000111101011010010 :
b11001100001011001001011101001110 /
b100110010010100001101110101011100000101000010101111110011010000110001001000000111011011001110011001100001011001001011101001110 !
b100110010010100001101110101011100000101000010101111110011010000110001001000000111011011001110011001100001011001001011101001110 +
b1001011110110101011010111100100 1
b1101101100100001010111001001111 '
b10100100110011110110010111000011 (
b11100000110001011001001111110100 )
b10101110011011000111101011010010 *
b10101110011011000111101011010010 6
b11011000000000000000000000000 0
b11011000000000000000000000000 5
b1000 #
b1101101100100001010111001001111101001001100111101100101110000111110000011000101100100111111010010101110011011000111101011010010 $
b1101101100100001010111001001111101001001100111101100101110000111110000011000101100100111111010010101110011011000111101011010010 &
b1001 "
b1001 %
b1001 4
#900
b1110001 G
b1110001 B
b10001000 I
b10001000 C
b101111 K
b101111 D
b1001011 M
b1110001100010000010111101001011 3
b1110001100010000010111101001011 A
b1001011 E
b101100 =
b101100 F
b10010111 >
b10010111 H
b1001110 ?
b1001110 J
b11001100 @
b11001100 L
b1100001110000100011010011100000 ,
b11100011010001110100101010001000 -
b10000001000001111010011100010100 .
b101100100101110100111011001100 2
b101100100101110100111011001100 8
b101100100101110100111011001100 <
b101100100101110100111011001100 9
b11001100001011001001011101001110 :
b1001101001010110011000001011010 /
b1100001110000100011010011100000111000110100011101001010100010001000000100000111101001110001010001001101001010110011000001011010 !
b1100001110000100011010011100000111000110100011101001010100010001000000100000111101001110001010001001101001010110011000001011010 +
b1000111100010000010111101001011 1
b100110010010100001101110101011 '
b10000010100001010111111001101000 (
b1100010010000001110110110011100 )
b11001100001011001001011101001110 *
b11001100001011001001011101001110 6
b110110000000000000000000000000 0
b110110000000000000000000000000 5
b1001 #
b100110010010100001101110101011100000101000010101111110011010000110001001000000111011011001110011001100001011001001011101001110 $
b100110010010100001101110101011100000101000010101111110011010000110001001000000111011011001110011001100001011001001011101001110 &
b1010 "
b1010 %
b1010 4
#1000
b11110001 G
b11110001 B
b100 I
b100 C
b10111110 K
b10111110 D
b11100011 M
b11110001000001001011111011100011 3
b11110001000001001011111011100011 A
b11100011 E
b101011 =
b101011 F
b110000 >
b110000 H
b1011010 ?
b1011010 J
b1001101 @
b1001101 L
b11111100110001101000101000000011 ,
b11111100000011100000010001011 -
b10011110100001100110011110011111 .
b101011001100000101101001001101 2
b101011001100000101101001001101 8
b101011001100000101101001001101 <
b101011001100000101101001001101 9
b1001101001010110011000001011010 :
b11010011101011010101011111000101 /
b11111100110001101000101000000011000111111000000111000000100010111001111010000110011001111001111111010011101011010101011111000101 !
b11111100110001101000101000000011000111111000000111000000100010111001111010000110011001111001111111010011101011010101011111000101 +
b10011101000001001011111011100011 1
b1100001110000100011010011100000 '
b11100011010001110100101010001000 (
b10000001000001111010011100010100 )
b1001101001010110011000001011010 *
b1001101001010110011000001011010 6
b1101100000000000000000000000000 0
b1101100000000000000000000000000 5
b1010 #
b1100001110000100011010011100000111000110100011101001010100010001000000100000111101001110001010001001101001010110011000001011010 $
b1100001110000100011010011100000111000110100011101001010100010001000000100000111101001110001010001001101001010110011000001011010 &
b1011 "
b1011 %
b1011 4
