work/add.vcd
$date
	Tue Jun 16 16:51:54 2015
$end
$version
	Icarus Verilog
$end
$timescale
	1ns
$end
$scope module test $end
$var wire 128 ! key [127:0] $end
$var reg 8 " count [7:0] $end
$var integer 32 # i [31:0] $end
$var reg 128 $ word [127:0] $end
$scope module ex $end
$var wire 8 % count [7:0] $end
$var wire 128 & in [127:0] $end
$var wire 32 ' in0 [31:0] $end
$var wire 32 ( in1 [31:0] $end
$var wire 32 ) in2 [31:0] $end
$var wire 32 * in3 [31:0] $end
$var wire 128 + out [127:0] $end
$var wire 32 , out0 [31:0] $end
$var wire 32 - out1 [31:0] $end
$var wire 32 . out2 [31:0] $end
$var wire 32 / out3 [31:0] $end
$var wire 32 0 rc [31:0] $end
$var wire 32 1 rt [31:0] $end
$var wire 32 2 rw [31:0] $end
$var wire 32 3 sw [31:0] $end
$scope module rcon $end
$var wire 8 4 in [7:0] $end
$var wire 32 5 out [31:0] $end
$var wire 1 6 out0 $end
$upscope $end
$scope module rot $end
$var wire 32 7 in [31:0] $end
$var wire 8 8 in0 [7:0] $end
$var wire 8 9 in1 [7:0] $end
$var wire 8 : in2 [7:0] $end
$var wire 8 ; in3 [7:0] $end
$var wire 32 < out [31:0] $end
$upscope $end
$scope module sub $end
$var wire 32 = x [31:0] $end
$var wire 8 > x0 [7:0] $end
$var wire 8 ? x1 [7:0] $end
$var wire 8 @ x2 [7:0] $end
$var wire 8 A x3 [7:0] $end
$var wire 32 B y [31:0] $end
$var wire 8 C y0 [7:0] $end
$var wire 8 D y1 [7:0] $end
$var wire 8 E y2 [7:0] $end
$var wire 8 F y3 [7:0] $end
$scope module sub0 $end
$var wire 8 G x [7:0] $end
$var reg 8 H y [7:0] $end
$upscope $end
$scope module sub1 $end
$var wire 8 I x [7:0] $end
$var reg 8 J y [7:0] $end
$upscope $end
$scope module sub2 $end
$var wire 8 K x [7:0] $end
$var reg 8 L y [7:0] $end
$upscope $end
$scope module sub3 $end
$var wire 8 M x [7:0] $end
$var reg 8 N y [7:0] $end
$upscope $end
$upscope $end
$upscope $end
$upscope $end
$enddefinitions $end
#0
$dumpvars
b1100011 N
b0 M
b1110110 L
b1111 K
b1100011 J
b0 I
b1100011 H
b0 G
b1100011 F
b1110110 E
b1100011 D
b1100011 C
b1100011011000110111011001100011 B
b0 A
b1111 @
b0 ?
b0 >
b111100000000 =
b111100000000 <
b1111 ;
b0 :
b0 9
b0 8
b1111 7
06
b0 5
b0 4
b1100011011000110111011001100011 3
b111100000000 2
b1100011011000110111011001100011 1
b0 0
b1100011011000110111011001100011 /
b1100011011000110111011001101100 .
b1100011011000110111011001100010 -
b1100011011000110111011001101111 ,
b10000001000000011000001000000010100000110000001110000100000001001000010100000101100001100000011010000111000001111 +
b1111 *
b1110 )
b1101 (
b1100 '
b10000001000000011000001000000010100000110000001110000100000001001000010100000101100001100000011010000111000001111 &
b0 %
b10000001000000011000001000000010100000110000001110000100000001001000010100000101100001100000011010000111000001111 $
b0 #
b0 "
b10000001000000011000001000000010100000110000001110000100000001001000010100000101100001100000011010000111000001111 !
$end
#100
b1100010011000110111011001100011 /
b1100010011000110111011001101100 .
b1100010011000110111011001100010 -
b1100010011000110111011001101111 ,
b1100010011000110111011001100011 1
b1000000000000000000000000 0
b1000000000000000000000000 5
16
b1 #
b1 "
b1 %
b1 4
#200
b1100011011000110111011001100011 /
b1100011011000110111011001101100 .
b1100011011000110111011001100010 -
b1100011011000110111011001101111 ,
b1100011011000110111011001100011 1
b1100011011000110111011001101111011000110110001101110110011000100110001101100011011101100110110001100011011000110111011001100011 !
b1100011011000110111011001101111011000110110001101110110011000100110001101100011011101100110110001100011011000110111011001100011 +
b0 0
b0 5
06
b10 #
b10 "
b10 %
b10 4
#300
b1100011011000111111101101100011 1
b11111011 L
b1100011011000111111101101100011 3
b1100011011000111111101101100011 B
b11111011 E
b1100011 @
b1100011 K
b1100011011000111111101100000000011000110110001111111011011000110110001101100011111110110001010101100011011000111111101101110110 !
b1100011011000111111101100000000011000110110001111111011011000110110001101100011111110110001010101100011011000111111101101110110 +
b1100011011000111111101100000000 ,
b1100011011000111111101101100011 -
b1100011011000111111101100010101 .
b110001100000000 2
b110001100000000 <
b110001100000000 =
b1100011 ;
b1100011011000111111101101110110 /
b1100011 '
b1100011 (
b1110110 )
b1100011 *
b1100011 7
b11 #
b1100011011000110111011001101111011000110110001101110110011000100110001101100011011101100110110001100011011000110111011001100011 $
b1100011011000110111011001101111011000110110001101110110011000100110001101100011011101100110110001100011011000110111011001100011 &
b11 "
b11 %
b11 4
#400
b1100011011000110011100001100011 -
b1100011011000110011100000000000 ,
b1100011011000110011100001100011 1
b111000 L
b1100011011000110011100001100011 3
b1100011011000110011100001100011 B
b111000 E
b1110110 @
b1110110 K
b1100011011000110011100000000000011000110110001100111000011000110110001101100011001110001001100001100011011000110011100011101110 !
b1100011011000110011100000000000011000110110001100111000011000110110001101100011001110001001100001100011011000110011100011101110 +
b1100011011000110011100010011000 .
b111011000000000 2
b111011000000000 <
b111011000000000 =
b1110110 ;
b1100011011000110011100011101110 /
b11111011 )
b1110110 *
b1110110 7
b100 #
b1100011011000111111101100000000011000110110001111111011011000110110001101100011111110110001010101100011011000111111101101110110 $
b1100011011000111111101100000000011000110110001111111011011000110110001101100011111110110001010101100011011000111111101101110110 &
b100 "
b100 %
b100 4
#500
b1100011011000110010100001100011 -
b1100011011000110010100000000000 ,
b1100011011000110010100001100011 1
b101000 L
b1100011011000110010100001100011 3
b1100011011000110010100001100011 B
b101000 E
b11101110 @
b11101110 K
b1100011011000110010100000000000011000110110001100101000011000110110001101100011001010000101101101100011011000110010100010110101 !
b1100011011000110010100000000000011000110110001100101000011000110110001101100011001010000101101101100011011000110010100010110101 +
b1100011011000110010100001011011 .
b1110111000000000 2
b1110111000000000 <
b1110111000000000 =
b11101110 ;
b1100011011000110010100010110101 /
b111000 )
b11101110 *
b11101110 7
b101 #
b1100011011000110011100000000000011000110110001100111000011000110110001101100011001110001001100001100011011000110011100011101110 $
b1100011011000110011100000000000011000110110001100111000011000110110001101100011001110001001100001100011011000110011100011101110 &
b101 "
b101 %
b101 4
#600
b1100011011000111101010101100011 -
b1100011011000111101010100000000 ,
b1100011011000111101010101100011 1
b11010101 L
b1100011011000111101010101100011 3
b1100011011000111101010101100011 B
b11010101 E
b10110101 @
b10110101 K
b1100011011000111101010100000000011000110110001111010101011000110110001101100011110101010100101101100011011000111101010111111110 !
b1100011011000111101010100000000011000110110001111010101011000110110001101100011110101010100101101100011011000111101010111111110 +
b1100011011000111101010101001011 .
b1011010100000000 2
b1011010100000000 <
b1011010100000000 =
b10110101 ;
b1100011011000111101010111111110 /
b101000 )
b10110101 *
b10110101 7
b110 #
b1100011011000110010100000000000011000110110001100101000011000110110001101100011001010000101101101100011011000110010100010110101 $
b1100011011000110010100000000000011000110110001100101000011000110110001101100011001010000101101101100011011000110010100010110101 &
b110 "
b110 %
b110 4
#700
b1100011011000111011101101100011 -
b1100011011000111011101100000000 ,
b1100011011000111011101101100011 1
b10111011 L
b1100011011000111011101101100011 3
b1100011011000111011101101100011 B
b10111011 E
b11111110 @
b11111110 K
b1100011011000111011101100000000011000110110001110111011011000110110001101100011101110111011011001100011011000111011101101001000 !
b1100011011000111011101100000000011000110110001110111011011000110110001101100011101110111011011001100011011000111011101101001000 +
b1100011011000111011101110110110 .
b1111111000000000 2
b1111111000000000 <
b1111111000000000 =
b11111110 ;
b1100011011000111011101101001000 /
b11010101 )
b11111110 *
b11111110 7
b111 #
b1100011011000111101010100000000011000110110001111010101011000110110001101100011110101010100101101100011011000111101010111111110 $
b1100011011000111101010100000000011000110110001111010101011000110110001101100011110101010100101101100011011000111101010111111110 &
b111 "
b111 %
b111 4
#800
b1100011011000110101001001100011 -
b1100011011000110101001000000000 ,
b1100011011000110101001001100011 1
b1010010 L
b1100011011000110101001001100011 3
b1100011011000110101001001100011 B
b1010010 E
b1001000 @
b1001000 K
b1100011011000110101001000000000011000110110001101010010011000110110001101100011010100101101100001100011011000110101001010010000 !
b1100011011000110101001000000000011000110110001101010010011000110110001101100011010100101101100001100011011000110101001010010000 +
b1100011011000110101001011011000 .
b100100000000000 2
b100100000000000 <
b100100000000000 =
b1001000 ;
b1100011011000110101001010010000 /
b10111011 )
b1001000 *
b1001000 7
b1000 #
b1100011011000111011101100000000011000110110001110111011011000110110001101100011101110111011011001100011011000111011101101001000 $
b1100011011000111011101100000000011000110110001110111011011000110110001101100011101110111011011001100011011000111011101101001000 &
b1000 "
b1000 %
b1000 4
#900
b1100000 L
b1100011011000110110000001100011 3
b1100011011000110110000001100011 B
b1100000 E
b1100010011000110110000001100011 -
b10010000 @
b10010000 K
b1100010011000110110000000000000011000100110001101100000011000110110001001100011011000000011000101100010011000110110000010100001 !
b1100010011000110110000000000000011000100110001101100000011000110110001001100011011000000011000101100010011000110110000010100001 +
b1100010011000110110000000000000 ,
b1100010011000110110000000110001 .
b1001000000000000 2
b1001000000000000 <
b1001000000000000 =
b10010000 ;
b1100010011000110110000010100001 /
b1100010011000110110000001100011 1
b1010010 )
b10010000 *
b10010000 7
b1000000000000000000000000 0
b1000000000000000000000000 5
16
b1001 #
b1100011011000110101001000000000011000110110001101010010011000110110001101100011010100101101100001100011011000110101001010010000 $
b1100011011000110101001000000000011000110110001101010010011000110110001101100011010100101101100001100011011000110101001010010000 &
b1001 "
b1001 %
b1001 4
#1000
b110010 L
b1100011011000110011001001100011 3
b1100011011000110011001001100011 B
b110010 E
b1100011011000110011001001100010 -
b10100001 @
b10100001 K
b1100011011000110011001000000001011000110110001100110010011000100110001101100011001100100000001001100011011000110011001010100011 !
b1100011011000110011001000000001011000110110001100110010011000100110001101100011001100100000001001100011011000110011001010100011 +
b1100011011000110011001000000001 ,
b1100011011000110011001000000010 .
b1010000100000000 2
b1010000100000000 <
b1010000100000000 =
b10100001 ;
b1100011011000110011001010100011 /
b1100011011000110011001001100011 1
b1100010 '
b1100000 )
b10100001 *
b10100001 7
b0 0
b0 5
06
b1010 #
b1100010011000110110000000000000011000100110001101100000011000110110001001100011011000000011000101100010011000110110000010100001 $
b1100010011000110110000000000000011000100110001101100000011000110110001001100011011000000011000101100010011000110110000010100001 &
b1010 "
b1010 %
b1010 4
#1100
b1100011011000110000101001100011 1
b1010 L
b1100011011000110000101001100011 3
b1100011011000110000101001100011 B
b1010 E
b1100011011000110000101001100011 -
b10100011 @
b10100011 K
b1100011011000110000101000000000011000110110001100001010011000110110001101100011000010100101000101100011011000110000101011110010 !
b1100011011000110000101000000000011000110110001100001010011000110110001101100011000010100101000101100011011000110000101011110010 +
b1100011011000110000101000000000 ,
b1100011011000110000101001010001 .
b1010001100000000 2
b1010001100000000 <
b1010001100000000 =
b10100011 ;
b1100011011000110000101011110010 /
b1100011 '
b110010 )
b10100011 *
b10100011 7
b1011 #
b1100011011000110011001000000001011000110110001100110010011000100110001101100011001100100000001001100011011000110011001010100011 $
b1100011011000110011001000000001011000110110001100110010011000100110001101100011001100100000001001100011011000110011001010100011 &
b1011 "
b1011 %
b1011 4
#1200
b1100011011000111000100101100011 -
b1100011011000111000100100000000 ,
b1100011011000111000100101100011 1
b10001001 L
b1100011011000111000100101100011 3
b1100011011000111000100101100011 B
b10001001 E
b11110010 @
b11110010 K
b1100011011000111000100100000000011000110110001110001001011000110110001101100011100010010110100101100011011000111000100110011011 !
b1100011011000111000100100000000011000110110001110001001011000110110001101100011100010010110100101100011011000111000100110011011 +
b1100011011000111000100101101001 .
b1111001000000000 2
b1111001000000000 <
b1111001000000000 =
b11110010 ;
b1100011011000111000100110011011 /
b1010 )
b11110010 *
b11110010 7
b1100 #
b1100011011000110000101000000000011000110110001100001010011000110110001101100011000010100101000101100011011000110000101011110010 $
b1100011011000110000101000000000011000110110001100001010011000110110001101100011000010100101000101100011011000110000101011110010 &
b1100 "
b1100 %
b1100 4
