work/add.vcd
$date
	Wed Jun 17 20:41:06 2015
$end
$version
	Icarus Verilog
$end
$timescale
	1ns
$end
$scope module test $end
$var wire 128 ! exkey [127:0] $end
$var reg 8 " count [7:0] $end
$var integer 32 # i [31:0] $end
$var reg 128 $ key [127:0] $end
$scope module expand $end
$var wire 8 % count [7:0] $end
$var wire 128 & in [127:0] $end
$var wire 32 ' in0 [31:0] $end
$var wire 32 ( in1 [31:0] $end
$var wire 32 ) in2 [31:0] $end
$var wire 32 * in3 [31:0] $end
$var wire 128 + out [127:0] $end
$var wire 32 , out0 [31:0] $end
$var wire 32 - out1 [31:0] $end
$var wire 32 . out2 [31:0] $end
$var wire 32 / out3 [31:0] $end
$var wire 32 0 rc [31:0] $end
$var wire 32 1 rt [31:0] $end
$var wire 32 2 rw [31:0] $end
$var wire 32 3 sw [31:0] $end
$scope module rcon $end
$var wire 8 4 count [7:0] $end
$var wire 32 5 out [31:0] $end
$upscope $end
$scope module ls $end
$var wire 32 6 in [31:0] $end
$var wire 8 7 num [7:0] $end
$var wire 32 8 out [31:0] $end
$scope function FUNC_SHIFT $end
$var reg 32 9 FUNC_SHIFT [31:0] $end
$var reg 32 : in [31:0] $end
$var reg 8 ; num [7:0] $end
$upscope $end
$upscope $end
$scope module sub $end
$var wire 32 < x [31:0] $end
$var wire 8 = x0 [7:0] $end
$var wire 8 > x1 [7:0] $end
$var wire 8 ? x2 [7:0] $end
$var wire 8 @ x3 [7:0] $end
$var wire 32 A y [31:0] $end
$var wire 8 B y0 [7:0] $end
$var wire 8 C y1 [7:0] $end
$var wire 8 D y2 [7:0] $end
$var wire 8 E y3 [7:0] $end
$scope module sub0 $end
$var wire 8 F x [7:0] $end
$var reg 8 G y [7:0] $end
$upscope $end
$scope module sub1 $end
$var wire 8 H x [7:0] $end
$var reg 8 I y [7:0] $end
$upscope $end
$scope module sub2 $end
$var wire 8 J x [7:0] $end
$var reg 8 K y [7:0] $end
$upscope $end
$scope module sub3 $end
$var wire 8 L x [7:0] $end
$var reg 8 M y [7:0] $end
$upscope $end
$upscope $end
$upscope $end
$upscope $end
$enddefinitions $end
#0
$dumpvars
b11111110 M
b1100 L
b1110110 K
b1111 J
b10101011 I
b1110 H
b11010111 G
b1101 F
b11111110 E
b1110110 D
b10101011 C
b11010111 B
b11010111101010110111011011111110 A
b1100 @
b1111 ?
b1110 >
b1101 =
b1101000011100000111100001100 <
b1 ;
b1100000011010000111000001111 :
b1101000011100000111100001100 9
b1101000011100000111100001100 8
b1 7
b1100000011010000111000001111 6
b1000000000000000000000000 5
b1 4
b11010111101010110111011011111110 3
b1101000011100000111100001100 2
b11010110101010110111011011111110 1
b1000000000000000000000000 0
b11010110101010110111011011111110 /
b11011010101001100111100011110001 .
b11010010101011110111001011111010 -
b11010110101010100111010011111101 ,
b11010110101010100111010011111101110100101010111101110010111110101101101010100110011110001111000111010110101010110111011011111110 +
b1100000011010000111000001111 *
b1000000010010000101000001011 )
b100000001010000011000000111 (
b10000001000000011 '
b10000001000000011000001000000010100000110000001110000100000001001000010100000101100001100000011010000111000001111 &
b1 %
b10000001000000011000001000000010100000110000001110000100000001001000010100000101100001100000011010000111000001111 $
b0 #
b1 "
b11010110101010100111010011111101110100101010111101110010111110101101101010100110011110001111000111010110101010110111011011111110 !
$end
#100
b1100010 G
b1100010 B
b111000 I
b111000 C
b10111011 K
b10111011 D
b11110110 M
b1100010001110001011101111110110 3
b1100010001110001011101111110110 A
b11110110 E
b10101011 =
b10101011 F
b1110110 >
b1110110 H
b11111110 ?
b11111110 J
b11010110 @
b11010110 L
b10110110100100101100111100001011 ,
b1100100001111011011110111110001 -
b10111110100110111100010100000000 .
b10101011011101101111111011010110 2
b10101011011101101111111011010110 8
b10101011011101101111111011010110 <
b10101011011101101111111011010110 9
b11010110101010110111011011111110 :
b1101000001100001011001111111110 /
b10110110100100101100111100001011011001000011110110111101111100011011111010011011110001010000000001101000001100001011001111111110 !
b10110110100100101100111100001011011001000011110110111101111100011011111010011011110001010000000001101000001100001011001111111110 +
b1100000001110001011101111110110 1
b11010110101010100111010011111101 '
b11010010101011110111001011111010 (
b11011010101001100111100011110001 )
b11010110101010110111011011111110 *
b11010110101010110111011011111110 6
b10000000000000000000000000 0
b10000000000000000000000000 5
b1 #
b11010110101010100111010011111101110100101010111101110010111110101101101010100110011110001111000111010110101010110111011011111110 $
b11010110101010100111010011111101110100101010111101110010111110101101101010100110011110001111000111010110101010110111011011111110 &
b10 "
b10 %
b10 4
#200
b100 G
b100 B
b1101101 I
b1101101 C
b1000101 M
b100011011011011101101000101 3
b100011011011011101101000101 A
b1000101 E
b110000 =
b110000 F
b10110011 >
b10110011 H
b1101000 @
b1101000 L
b10110110111111110111010001001110 ,
b11010010110000101100100110111111 -
b1101100010110010000110010111111 .
b110000101100111111111001101000 2
b110000101100111111111001101000 8
b110000101100111111111001101000 <
b110000101100111111111001101000 9
b1101000001100001011001111111110 :
b100011010011011111101000001 /
b10110110111111110111010001001110110100101100001011001001101111110110110001011001000011001011111100000100011010011011111101000001 !
b10110110111111110111010001001110110100101100001011001001101111110110110001011001000011001011111100000100011010011011111101000001 +
b11011011011101101000101 1
b10110110100100101100111100001011 '
b1100100001111011011110111110001 (
b10111110100110111100010100000000 )
b1101000001100001011001111111110 *
b1101000001100001011001111111110 6
b100000000000000000000000000 0
b100000000000000000000000000 5
b10 #
b10110110100100101100111100001011011001000011110110111101111100011011111010011011110001010000000001101000001100001011001111111110 $
b10110110100100101100111100001011011001000011110110111101111100011011111010011011110001010000000001101000001100001011001111111110 &
b11 "
b11 %
b11 4
#300
b11111001 G
b11111001 B
b1000 I
b1000 C
b10000011 K
b10000011 D
b11110010 M
b11111001000010001000001111110010 3
b11111001000010001000001111110010 A
b11110010 E
b1101001 =
b1101001 F
b10111111 >
b10111111 H
b1000001 ?
b1000001 J
b100 @
b100 L
b1000111111101111111011110111100 ,
b10010101001101010011111000000011 -
b11111001011011000011001010111100 .
b1101001101111110100000100000100 2
b1101001101111110100000100000100 8
b1101001101111110100000100000100 <
b1101001101111110100000100000100 9
b100011010011011111101000001 :
b11111101000001011000110111111101 /
b1000111111101111111011110111100100101010011010100111110000000111111100101101100001100101011110011111101000001011000110111111101 !
b1000111111101111111011110111100100101010011010100111110000000111111100101101100001100101011110011111101000001011000110111111101 +
b11110001000010001000001111110010 1
b10110110111111110111010001001110 '
b11010010110000101100100110111111 (
b1101100010110010000110010111111 )
b100011010011011111101000001 *
b100011010011011111101000001 6
b1000000000000000000000000000 0
b1000000000000000000000000000 5
b11 #
b10110110111111110111010001001110110100101100001011001001101111110110110001011001000011001011111100000100011010011011111101000001 $
b10110110111111110111010001001110110100101100001011001001101111110110110001011001000011001011111100000100011010011011111101000001 &
b100 "
b100 %
b100 4
#400
b1101011 G
b1101011 B
b1011101 I
b1011101 C
b1010100 K
b1010100 D
b1010100 M
b1101011010111010101010001010100 3
b1101011010111010101010001010100 A
b1010100 E
b101 =
b101 F
b10001101 >
b10001101 H
b11111101 ?
b11111101 J
b11111101 @
b11111101 L
b111100101010101010001111101000 ,
b10101001100111111001110111101011 -
b1010000111100111010111101010111 .
b101100011011111110111111101 2
b101100011011111110111111101 8
b101100011011111110111111101 <
b101100011011111110111111101 9
b11111101000001011000110111111101 :
b10101101111101100010001010101010 /
b111100101010101010001111101000101010011001111110011101111010110101000011110011101011110101011110101101111101100010001010101010 !
b111100101010101010001111101000101010011001111110011101111010110101000011110011101011110101011110101101111101100010001010101010 +
b1111011010111010101010001010100 1
b1000111111101111111011110111100 '
b10010101001101010011111000000011 (
b11111001011011000011001010111100 )
b11111101000001011000110111111101 *
b11111101000001011000110111111101 6
b10000000000000000000000000000 0
b10000000000000000000000000000 5
b100 #
b1000111111101111111011110111100100101010011010100111110000000111111100101101100001100101011110011111101000001011000110111111101 $
b1000111111101111111011110111100100101010011010100111110000000111111100101101100001100101011110011111101000001011000110111111101 &
b101 "
b101 %
b101 4
#500
b1000010 G
b1000010 B
b10010011 I
b10010011 C
b10101100 K
b10101100 D
b10010101 M
b1000010100100111010110010010101 3
b1000010100100111010110010010101 A
b10010101 E
b11110110 =
b11110110 F
b100010 >
b100010 H
b10101010 ?
b10101010 J
b10101101 @
b10101101 L
b1011110001110010000111101111101 ,
b11110111101001101001001010010110 -
b10100111010101010011110111000001 .
b11110110001000101010101010101101 2
b11110110001000101010101010101101 8
b11110110001000101010101010101101 <
b11110110001000101010101010101101 9
b10101101111101100010001010101010 :
b1010101000110001111101101011 /
b1011110001110010000111101111101111101111010011010010010100101101010011101010101001111011100000100001010101000110001111101101011 !
b1011110001110010000111101111101111101111010011010010010100101101010011101010101001111011100000100001010101000110001111101101011 +
b1100010100100111010110010010101 1
b111100101010101010001111101000 '
b10101001100111111001110111101011 (
b1010000111100111010111101010111 )
b10101101111101100010001010101010 *
b10101101111101100010001010101010 6
b100000000000000000000000000000 0
b100000000000000000000000000000 5
b101 #
b111100101010101010001111101000101010011001111110011101111010110101000011110011101011110101011110101101111101100010001010101010 $
b111100101010101010001111101000101010011001111110011101111010110101000011110011101011110101011110101101111101100010001010101010 &
b110 "
b110 %
b110 4
#600
b1010 G
b1010 B
b11000000 I
b11000000 C
b1111111 K
b1111111 D
b1100111 M
b1010110000000111111101100111 3
b1010110000000111111101100111 A
b1100111 E
b10100011 =
b10100011 F
b11111 >
b11111 H
b1101011 ?
b1101011 J
b1010 @
b1010 L
b10100111110010111000000011010 ,
b11100011010111111110001010001100 -
b1000100000010101101111101001101 .
b10100011000111110110101100001010 2
b10100011000111110110101100001010 8
b10100011000111110110101100001010 <
b10100011000111110110101100001010 9
b1010101000110001111101101011 :
b1001110101010011100000000100110 /
b10100111110010111000000011010111000110101111111100010100011000100010000001010110111110100110101001110101010011100000000100110 !
b10100111110010111000000011010111000110101111111100010100011000100010000001010110111110100110101001110101010011100000000100110 +
b1001010110000000111111101100111 1
b1011110001110010000111101111101 '
b11110111101001101001001010010110 (
b10100111010101010011110111000001 )
b1010101000110001111101101011 *
b1010101000110001111101101011 6
b1000000000000000000000000000000 0
b1000000000000000000000000000000 5
b110 #
b1011110001110010000111101111101111101111010011010010010100101101010011101010101001111011100000100001010101000110001111101101011 $
b1011110001110010000111101111101111101111010011010010010100101101010011101010101001111011100000100001010101000110001111101101011 &
b111 "
b111 %
b111 4
#700
b11010011 G
b11010011 B
b10111010 I
b10111010 C
b11110111 K
b11110111 D
b101111 M
b11010011101110101111011100101111 3
b11010011101110101111011100101111 A
b101111 E
b10101001 =
b10101001 F
b11000000 >
b11000000 H
b100110 ?
b100110 J
b1001110 @
b1001110 L
b1000111010000111000011100110101 ,
b10100100000111000110010110111001 -
b11100000000101101011101011110100 .
b10101001110000000010011001001110 2
b10101001110000000010011001001110 8
b10101001110000000010011001001110 <
b10101001110000000010011001001110 9
b1001110101010011100000000100110 :
b10101110101111110111101011010010 /
b1000111010000111000011100110101101001000001110001100101101110011110000000010110101110101111010010101110101111110111101011010010 !
b1000111010000111000011100110101101001000001110001100101101110011110000000010110101110101111010010101110101111110111101011010010 +
b1010011101110101111011100101111 1
b10100111110010111000000011010 '
b11100011010111111110001010001100 (
b1000100000010101101111101001101 )
b1001110101010011100000000100110 *
b1001110101010011100000000100110 6
b10000000000000000000000000000000 0
b10000000000000000000000000000000 5
b111 #
b10100111110010111000000011010111000110101111111100010100011000100010000001010110111110100110101001110101010011100000000100110 $
b10100111110010111000000011010111000110101111111100010100011000100010000001010110111110100110101001110101010011100000000100110 &
b1000 "
b1000 %
b1000 4
#800
b1000 G
b1000 B
b11011010 I
b11011010 C
b10110101 K
b10110101 D
b11100100 M
b1000110110101011010111100100 3
b1000110110101011010111100100 A
b11100100 E
b10111111 =
b10111111 F
b1111010 >
b1111010 H
b11010010 ?
b11010010 J
b10101110 @
b10101110 L
b1010100100110010011001011010001 ,
b11110000100001010101011101101000 -
b10000100100111110110110011100 .
b10111111011110101101001010101110 2
b10111111011110101101001010101110 8
b10111111011110101101001010101110 <
b10111111011110101101001010101110 9
b10101110101111110111101011010010 :
b10111110001011001001011101001110 /
b1010100100110010011001011010001111100001000010101010111011010000001000010010011111011011001110010111110001011001001011101001110 !
b1010100100110010011001011010001111100001000010101010111011010000001000010010011111011011001110010111110001011001001011101001110 +
b10011110110101011010111100100 1
b1000111010000111000011100110101 '
b10100100000111000110010110111001 (
b11100000000101101011101011110100 )
b10101110101111110111101011010010 *
b10101110101111110111101011010010 6
b11011000000000000000000000000 0
b11011000000000000000000000000 5
b1000 #
b1000111010000111000011100110101101001000001110001100101101110011110000000010110101110101111010010101110101111110111101011010010 $
b1000111010000111000011100110101101001000001110001100101101110011110000000010110101110101111010010101110101111110111101011010010 &
b1001 "
b1001 %
b1001 4
#900
b1110001 G
b1110001 B
b10001000 I
b10001000 C
b101111 K
b101111 D
b10101110 M
b1110001100010000010111110101110 3
b1110001100010000010111110101110 A
b10101110 E
b101100 =
b101100 F
b10010111 >
b10010111 H
b1001110 ?
b1001110 J
b10111110 @
b10111110 L
b10011000100010001110101111111 ,
b11100011100101000100101000010111 -
b11110011000001111010011110001011 .
b101100100101110100111010111110 2
b101100100101110100111010111110 8
b101100100101110100111010111110 <
b101100100101110100111010111110 9
b10111110001011001001011101001110 :
b1001101001010110011000011000101 /
b10011000100010001110101111111111000111001010001001010000101111111001100000111101001111000101101001101001010110011000011000101 !
b10011000100010001110101111111111000111001010001001010000101111111001100000111101001111000101101001101001010110011000011000101 +
b1000111100010000010111110101110 1
b1010100100110010011001011010001 '
b11110000100001010101011101101000 (
b10000100100111110110110011100 )
b10111110001011001001011101001110 *
b10111110001011001001011101001110 6
b110110000000000000000000000000 0
b110110000000000000000000000000 5
b1001 #
b1010100100110010011001011010001111100001000010101010111011010000001000010010011111011011001110010111110001011001001011101001110 $
b1010100100110010011001011010001111100001000010101010111011010000001000010010011111011011001110010111110001011001001011101001110 &
b1010 "
b1010 %
b1010 4
#1000
b11110001 G
b11110001 B
b100 I
b100 C
b10100110 K
b10100110 D
b11100011 M
b11110001000001001010011011100011 3
b11110001000001001010011011100011 A
b11100011 E
b101011 =
b101011 F
b110000 >
b110000 H
b11000101 ?
b11000101 J
b1001101 @
b1001101 L
b10001110000101011011101110011100 ,
b1101101100000011111000110001011 -
b10011110100001100101011000000000 .
b101011001100001100010101001101 2
b101011001100001100010101001101 8
b101011001100001100010101001101 <
b101011001100001100010101001101 9
b1001101001010110011000011000101 :
b11010011101011010110011011000101 /
b10001110000101011011101110011100011011011000000111110001100010111001111010000110010101100000000011010011101011010110011011000101 !
b10001110000101011011101110011100011011011000000111110001100010111001111010000110010101100000000011010011101011010110011011000101 +
b10011101000001001010011011100011 1
b10011000100010001110101111111 '
b11100011100101000100101000010111 (
b11110011000001111010011110001011 )
b1001101001010110011000011000101 *
b1001101001010110011000011000101 6
b1101100000000000000000000000000 0
b1101100000000000000000000000000 5
b1010 #
b10011000100010001110101111111111000111001010001001010000101111111001100000111101001111000101101001101001010110011000011000101 $
b10011000100010001110101111111111000111001010001001010000101111111001100000111101001111000101101001101001010110011000011000101 &
b1011 "
b1011 %
b1011 4
