kairo/AES/state.vcd
$date
	Sun Jun 21 02:59:07 2015
$end
$version
	Icarus Verilog
$end
$timescale
	1ns
$end
$scope module test $end
$var wire 128 ! ENC [127:0] $end
$var reg 128 " IN [127:0] $end
$var reg 128 # KEY [127:0] $end
$var reg 1 $ clk $end
$var reg 1 % reset $end
$scope module round $end
$var wire 128 & EXKEY [127:0] $end
$var wire 128 ' IN [127:0] $end
$var wire 128 ( KEY [127:0] $end
$var wire 128 ) OUT [127:0] $end
$var wire 1 * clk $end
$var wire 8 + count [7:0] $end
$var wire 3 , cs [2:0] $end
$var wire 1 - reset $end
$var reg 128 . ENC [127:0] $end
$var reg 128 / inp [127:0] $end
$var reg 128 0 keyp [127:0] $end
$scope module state $end
$var wire 1 * clk $end
$var wire 1 - res $end
$var reg 8 1 cot [7:0] $end
$var reg 3 2 cs [2:0] $end
$upscope $end
$scope module malch $end
$var wire 128 3 IN [127:0] $end
$var wire 128 4 KEY [127:0] $end
$var wire 128 5 add_out [127:0] $end
$var wire 1 * clk $end
$var wire 8 6 count [7:0] $end
$var wire 3 7 cs [2:0] $end
$var wire 128 8 mix_out [127:0] $end
$var wire 128 9 shi_out [127:0] $end
$var wire 128 : sub_out [127:0] $end
$var wire 128 ; tmp_key [127:0] $end
$var reg 128 < EXKEY [127:0] $end
$var reg 128 = OUT [127:0] $end
$scope module add $end
$var wire 128 > key [127:0] $end
$var wire 128 ? str [127:0] $end
$var wire 128 @ word [127:0] $end
$upscope $end
$scope module sub $end
$var wire 128 A x [127:0] $end
$var wire 32 B x0 [31:0] $end
$var wire 32 C x1 [31:0] $end
$var wire 32 D x2 [31:0] $end
$var wire 32 E x3 [31:0] $end
$var wire 128 F y [127:0] $end
$var wire 32 G y0 [31:0] $end
$var wire 32 H y1 [31:0] $end
$var wire 32 I y2 [31:0] $end
$var wire 32 J y3 [31:0] $end
$scope module sub0 $end
$var wire 32 K x [31:0] $end
$var wire 8 L x0 [7:0] $end
$var wire 8 M x1 [7:0] $end
$var wire 8 N x2 [7:0] $end
$var wire 8 O x3 [7:0] $end
$var wire 32 P y [31:0] $end
$var wire 8 Q y0 [7:0] $end
$var wire 8 R y1 [7:0] $end
$var wire 8 S y2 [7:0] $end
$var wire 8 T y3 [7:0] $end
$scope module sub0 $end
$var wire 8 U x [7:0] $end
$var reg 8 V y [7:0] $end
$upscope $end
$scope module sub1 $end
$var wire 8 W x [7:0] $end
$var reg 8 X y [7:0] $end
$upscope $end
$scope module sub2 $end
$var wire 8 Y x [7:0] $end
$var reg 8 Z y [7:0] $end
$upscope $end
$scope module sub3 $end
$var wire 8 [ x [7:0] $end
$var reg 8 \ y [7:0] $end
$upscope $end
$upscope $end
$scope module sub1 $end
$var wire 32 ] x [31:0] $end
$var wire 8 ^ x0 [7:0] $end
$var wire 8 _ x1 [7:0] $end
$var wire 8 ` x2 [7:0] $end
$var wire 8 a x3 [7:0] $end
$var wire 32 b y [31:0] $end
$var wire 8 c y0 [7:0] $end
$var wire 8 d y1 [7:0] $end
$var wire 8 e y2 [7:0] $end
$var wire 8 f y3 [7:0] $end
$scope module sub0 $end
$var wire 8 g x [7:0] $end
$var reg 8 h y [7:0] $end
$upscope $end
$scope module sub1 $end
$var wire 8 i x [7:0] $end
$var reg 8 j y [7:0] $end
$upscope $end
$scope module sub2 $end
$var wire 8 k x [7:0] $end
$var reg 8 l y [7:0] $end
$upscope $end
$scope module sub3 $end
$var wire 8 m x [7:0] $end
$var reg 8 n y [7:0] $end
$upscope $end
$upscope $end
$scope module sub2 $end
$var wire 32 o x [31:0] $end
$var wire 8 p x0 [7:0] $end
$var wire 8 q x1 [7:0] $end
$var wire 8 r x2 [7:0] $end
$var wire 8 s x3 [7:0] $end
$var wire 32 t y [31:0] $end
$var wire 8 u y0 [7:0] $end
$var wire 8 v y1 [7:0] $end
$var wire 8 w y2 [7:0] $end
$var wire 8 x y3 [7:0] $end
$scope module sub0 $end
$var wire 8 y x [7:0] $end
$var reg 8 z y [7:0] $end
$upscope $end
$scope module sub1 $end
$var wire 8 { x [7:0] $end
$var reg 8 | y [7:0] $end
$upscope $end
$scope module sub2 $end
$var wire 8 } x [7:0] $end
$var reg 8 ~ y [7:0] $end
$upscope $end
$scope module sub3 $end
$var wire 8 !" x [7:0] $end
$var reg 8 "" y [7:0] $end
$upscope $end
$upscope $end
$scope module sub3 $end
$var wire 32 #" x [31:0] $end
$var wire 8 $" x0 [7:0] $end
$var wire 8 %" x1 [7:0] $end
$var wire 8 &" x2 [7:0] $end
$var wire 8 '" x3 [7:0] $end
$var wire 32 (" y [31:0] $end
$var wire 8 )" y0 [7:0] $end
$var wire 8 *" y1 [7:0] $end
$var wire 8 +" y2 [7:0] $end
$var wire 8 ," y3 [7:0] $end
$scope module sub0 $end
$var wire 8 -" x [7:0] $end
$var reg 8 ." y [7:0] $end
$upscope $end
$scope module sub1 $end
$var wire 8 /" x [7:0] $end
$var reg 8 0" y [7:0] $end
$upscope $end
$scope module sub2 $end
$var wire 8 1" x [7:0] $end
$var reg 8 2" y [7:0] $end
$upscope $end
$scope module sub3 $end
$var wire 8 3" x [7:0] $end
$var reg 8 4" y [7:0] $end
$upscope $end
$upscope $end
$upscope $end
$scope module exp $end
$var wire 8 5" count [7:0] $end
$var wire 128 6" in [127:0] $end
$var wire 32 7" in0 [31:0] $end
$var wire 32 8" in1 [31:0] $end
$var wire 32 9" in2 [31:0] $end
$var wire 32 :" in3 [31:0] $end
$var wire 128 ;" out [127:0] $end
$var wire 32 <" out0 [31:0] $end
$var wire 32 =" out1 [31:0] $end
$var wire 32 >" out2 [31:0] $end
$var wire 32 ?" out3 [31:0] $end
$var wire 32 @" rc [31:0] $end
$var wire 32 A" rt [31:0] $end
$var wire 32 B" rw [31:0] $end
$var wire 32 C" sw [31:0] $end
$scope module rcon $end
$var wire 8 D" count [7:0] $end
$var wire 32 E" out [31:0] $end
$upscope $end
$scope module ls $end
$var wire 32 F" in [31:0] $end
$var wire 8 G" num [7:0] $end
$var wire 32 H" out [31:0] $end
$scope function FUNC_SHIFT $end
$var reg 32 I" FUNC_SHIFT [31:0] $end
$var reg 32 J" in [31:0] $end
$var reg 8 K" num [7:0] $end
$upscope $end
$upscope $end
$scope module sub $end
$var wire 32 L" x [31:0] $end
$var wire 8 M" x0 [7:0] $end
$var wire 8 N" x1 [7:0] $end
$var wire 8 O" x2 [7:0] $end
$var wire 8 P" x3 [7:0] $end
$var wire 32 Q" y [31:0] $end
$var wire 8 R" y0 [7:0] $end
$var wire 8 S" y1 [7:0] $end
$var wire 8 T" y2 [7:0] $end
$var wire 8 U" y3 [7:0] $end
$scope module sub0 $end
$var wire 8 V" x [7:0] $end
$var reg 8 W" y [7:0] $end
$upscope $end
$scope module sub1 $end
$var wire 8 X" x [7:0] $end
$var reg 8 Y" y [7:0] $end
$upscope $end
$scope module sub2 $end
$var wire 8 Z" x [7:0] $end
$var reg 8 [" y [7:0] $end
$upscope $end
$scope module sub3 $end
$var wire 8 \" x [7:0] $end
$var reg 8 ]" y [7:0] $end
$upscope $end
$upscope $end
$upscope $end
$scope module shi $end
$var wire 128 ^" in [127:0] $end
$var wire 128 _" out [127:0] $end
$upscope $end
$scope module mix $end
$var wire 128 `" in [127:0] $end
$var wire 128 a" out [127:0] $end
$var wire 32 b" x0 [31:0] $end
$var wire 32 c" x1 [31:0] $end
$var wire 32 d" x2 [31:0] $end
$var wire 32 e" x3 [31:0] $end
$var wire 32 f" y0 [31:0] $end
$var wire 32 g" y1 [31:0] $end
$var wire 32 h" y2 [31:0] $end
$var wire 32 i" y3 [31:0] $end
$scope module mix0 $end
$var wire 32 j" in [31:0] $end
$var wire 32 k" out [31:0] $end
$var wire 8 l" x0 [7:0] $end
$var wire 8 m" x1 [7:0] $end
$var wire 8 n" x2 [7:0] $end
$var wire 8 o" x3 [7:0] $end
$var wire 8 p" y0 [7:0] $end
$var wire 8 q" y1 [7:0] $end
$var wire 8 r" y2 [7:0] $end
$var wire 8 s" y3 [7:0] $end
$scope function FUNC_2 $end
$var reg 8 t" FUNC_2 [7:0] $end
$var reg 8 u" x [7:0] $end
$upscope $end
$upscope $end
$scope module mix1 $end
$var wire 32 v" in [31:0] $end
$var wire 32 w" out [31:0] $end
$var wire 8 x" x0 [7:0] $end
$var wire 8 y" x1 [7:0] $end
$var wire 8 z" x2 [7:0] $end
$var wire 8 {" x3 [7:0] $end
$var wire 8 |" y0 [7:0] $end
$var wire 8 }" y1 [7:0] $end
$var wire 8 ~" y2 [7:0] $end
$var wire 8 !# y3 [7:0] $end
$scope function FUNC_2 $end
$var reg 8 "# FUNC_2 [7:0] $end
$var reg 8 ## x [7:0] $end
$upscope $end
$upscope $end
$scope module mix2 $end
$var wire 32 $# in [31:0] $end
$var wire 32 %# out [31:0] $end
$var wire 8 &# x0 [7:0] $end
$var wire 8 '# x1 [7:0] $end
$var wire 8 (# x2 [7:0] $end
$var wire 8 )# x3 [7:0] $end
$var wire 8 *# y0 [7:0] $end
$var wire 8 +# y1 [7:0] $end
$var wire 8 ,# y2 [7:0] $end
$var wire 8 -# y3 [7:0] $end
$scope function FUNC_2 $end
$var reg 8 .# FUNC_2 [7:0] $end
$var reg 8 /# x [7:0] $end
$upscope $end
$upscope $end
$scope module mix3 $end
$var wire 32 0# in [31:0] $end
$var wire 32 1# out [31:0] $end
$var wire 8 2# x0 [7:0] $end
$var wire 8 3# x1 [7:0] $end
$var wire 8 4# x2 [7:0] $end
$var wire 8 5# x3 [7:0] $end
$var wire 8 6# y0 [7:0] $end
$var wire 8 7# y1 [7:0] $end
$var wire 8 8# y2 [7:0] $end
$var wire 8 9# y3 [7:0] $end
$scope function FUNC_2 $end
$var reg 8 :# FUNC_2 [7:0] $end
$var reg 8 ;# x [7:0] $end
$upscope $end
$upscope $end
$upscope $end
$upscope $end
$upscope $end
$upscope $end
$enddefinitions $end
#0
$dumpvars
bx ;#
bx0 :#
bx 9#
bx 8#
bx 7#
bx 6#
bx 5#
bx 4#
bx 3#
bx 2#
bx 1#
bx 0#
bx /#
bx0 .#
bx -#
bx ,#
bx +#
bx *#
bx )#
bx (#
bx '#
bx &#
bx %#
bx $#
bx ##
bx0 "#
bx !#
bx ~"
bx }"
bx |"
bx {"
bx z"
bx y"
bx x"
bx w"
bx v"
bx u"
bx0 t"
bx s"
bx r"
bx q"
bx p"
bx o"
bx n"
bx m"
bx l"
bx k"
bx j"
bx i"
bx h"
bx g"
bx f"
bx e"
bx d"
bx c"
bx b"
bx a"
bx `"
bx _"
bx ^"
bx ]"
bx \"
bx ["
bx Z"
bx Y"
bx X"
bx W"
bx V"
bx U"
bx T"
bx S"
bx R"
bx Q"
bx P"
bx O"
bx N"
bx M"
bx L"
b1 K"
bx J"
bx I"
bx H"
b1 G"
bx F"
bx E"
bx D"
bx C"
bx B"
bx A"
bx @"
bx ?"
bx >"
bx ="
bx <"
bx ;"
bx :"
bx 9"
bx 8"
bx 7"
bx 6"
bx 5"
bx 4"
bx 3"
bx 2"
bx 1"
bx 0"
bx /"
bx ."
bx -"
bx ,"
bx +"
bx *"
bx )"
bx ("
bx '"
bx &"
bx %"
bx $"
bx #"
bx ""
bx !"
bx ~
bx }
bx |
bx {
bx z
bx y
bx x
bx w
bx v
bx u
bx t
bx s
bx r
bx q
bx p
bx o
bx n
bx m
bx l
bx k
bx j
bx i
bx h
bx g
bx f
bx e
bx d
bx c
bx b
bx a
bx `
bx _
bx ^
bx ]
bx \
bx [
bx Z
bx Y
bx X
bx W
bx V
bx U
bx T
bx S
bx R
bx Q
bx P
bx O
bx N
bx M
bx L
bx K
bx J
bx I
bx H
bx G
bx F
bx E
bx D
bx C
bx B
bx A
bx @
bx ?
bx >
b0xxxxxxxxxxxxxxxxxxxxxxxxxxxxxxxxxxxxxxxxxxxxxxxxxxxxxxxxxxxxxxxxxxxxxxxxxxxxxxxxxxxxxxxxxxxxxxxxxxxxxxxxxxxxxxxxxxxxxxxxxxxxxxx =
b0xxxxxxxxxxxxxxxxxxxxxxxxxxxxxxxxxxxxxxxxxxxxxxxxxxxxxxxxxxxxxxxxxxxxxxxxxxxxxxxxxxxxxxxxxxxxxxxxxxxxxxxxxxxxxxxxxxxxxxxxxxxxxxx <
bx ;
bx :
bx 9
bx 8
bx 7
bx 6
bx 5
bx 4
bx 3
bx 2
bx 1
bx 0
bx /
bx .
1-
bx ,
bx +
0*
b0xxxxxxxxxxxxxxxxxxxxxxxxxxxxxxxxxxxxxxxxxxxxxxxxxxxxxxxxxxxxxxxxxxxxxxxxxxxxxxxxxxxxxxxxxxxxxxxxxxxxxxxxxxxxxxxxxxxxxxxxxxxxxxx )
b10000001000000011000001000000010100000110000001110000100000001001000010100000101100001100000011010000111000001111 (
b100010010001000110011010001000101010101100110011101111000100010011001101010101011101111001100110111011110111011111111 '
b0xxxxxxxxxxxxxxxxxxxxxxxxxxxxxxxxxxxxxxxxxxxxxxxxxxxxxxxxxxxxxxxxxxxxxxxxxxxxxxxxxxxxxxxxxxxxxxxxxxxxxxxxxxxxxxxxxxxxxxxxxxxxxxx &
1%
0$
b10000001000000011000001000000010100000110000001110000100000001001000010100000101100001100000011010000111000001111 #
b100010010001000110011010001000101010101100110011101111000100010011001101010101011101111001100110111011110111011111111 "
bx !
$end
#1
b11010111101010110111011011111110 ?"
b11011011101001100111100011110001 >"
b11010011101011110111001011111010 ="
b11010111101010100111010011111101 <"
b11010111101010100111010011111101110100111010111101110010111110101101101110100110011110001111000111010111101010110111011011111110 ;
b11010111101010100111010011111101110100111010111101110010111110101101101110100110011110001111000111010111101010110111011011111110 ;"
b11010111101010110111011011111110 A"
b11010111 W"
b11010111 R"
b10101011 Y"
b10101011 S"
b1110110 ["
b1110110 T"
b11111110 ]"
b11010111101010110111011011111110 C"
b11010111101010110111011011111110 Q"
b11111110 U"
b1100011 V
b1100011 Q
b10000010 X
b10000010 R
b10010011 Z
b10010011 S
b11000011 \
b1100011100000101001001111000011 G
b1100011100000101001001111000011 P
b11000011 T
b11011 h
b11011 c
b11111100 j
b11111100 d
b110011 l
b110011 e
b11110101 n
b11011111111000011001111110101 H
b11011111111000011001111110101 b
b11110101 f
b11000100 z
b11000100 u
b11101110 |
b11101110 v
b10101100 ~
b10101100 w
b11101010 ""
b11000100111011101010110011101010 I
b11000100111011101010110011101010 t
b11101010 x
b1001011 ."
b1001011 )"
b11000001 0"
b11000001 *"
b101000 2"
b101000 +"
b10110 4"
b1100011100000101001001111000011000110111111110000110011111101011100010011101110101011001110101001001011110000010010100000010110 :
b1100011100000101001001111000011000110111111110000110011111101011100010011101110101011001110101001001011110000010010100000010110 F
b1001011110000010010100000010110 J
b1001011110000010010100000010110 ("
b10110 ,"
b1010101 s"
b1110111 q"
b0 r"
b10001 !#
b110011 }"
b1000100 ~"
b11011101 -#
b11111111 +#
b10001000 ,#
b10011001 9#
b10111011 7#
b11001100 8#
b100010 p"
b100010011101110000000001010101 f"
b100010011101110000000001010101 k"
b1100110 |"
b1100110001100110100010000010001 g"
b1100110001100110100010000010001 w"
b10101010 *#
b10101010111111111000100011011101 h"
b10101010111111111000100011011101 %#
b11101110 6#
b100010011101110000000001010101011001100011001101000100000100011010101011111111100010001101110111101110101110111100110010011001 8
b100010011101110000000001010101011001100011001101000100000100011010101011111111100010001101110111101110101110111100110010011001 a"
b11101110101110111100110010011001 i"
b11101110101110111100110010011001 1#
b1101 M"
b1101 V"
b1110 N"
b1110 X"
b1111 O"
b1111 Z"
b1100 P"
b1100 \"
b10101011010101011111111010001001001100111101110001100111000100011011101001000100111011111001100000100010110011010111011 9
b10101011010101011111111010001001001100111101110001100111000100011011101001000100111011111001100000100010110011010111011 _"
b0 t"
b0 u"
b10001000 "#
b1000100 ##
b1011 .#
b10001000 /#
b10000011 :#
b11001100 ;#
b1101000011100000111100001100 B"
b1101000011100000111100001100 H"
b1101000011100000111100001100 L"
b1101000011100000111100001100 I"
b1100000011010000111000001111 J"
b0 L
b0 U
b10001 M
b10001 W
b100010 N
b100010 Y
b110011 O
b110011 [
b1000100 ^
b1000100 g
b1010101 _
b1010101 i
b1100110 `
b1100110 k
b1110111 a
b1110111 m
b10001000 p
b10001000 y
b10011001 q
b10011001 {
b10101010 r
b10101010 }
b10111011 s
b10111011 !"
b11001100 $"
b11001100 -"
b11011101 %"
b11011101 /"
b11101110 &"
b11101110 1"
b11111111 '"
b11111111 3"
b0 l"
b10001 m"
b100010 n"
b110011 o"
b1000100 x"
b1010101 y"
b1100110 z"
b1110111 {"
b10001000 &#
b10011001 '#
b10101010 (#
b10111011 )#
b11001100 2#
b11011101 3#
b11101110 4#
b11111111 5#
b0 @"
b0 E"
b10000001000000011 7"
b100000001010000011000000111 8"
b1000000010010000101000001011 9"
b1100000011010000111000001111 :"
b1100000011010000111000001111 F"
b100000010000000110000010000000101000001100000011100001000000010010000101000001011000011000000110100001110000011110000 5
b100000010000000110000010000000101000001100000011100001000000010010000101000001011000011000000110100001110000011110000 ?
b100010010001000110011 B
b100010010001000110011 K
b1000100010101010110011001110111 C
b1000100010101010110011001110111 ]
b10001000100110011010101010111011 D
b10001000100110011010101010111011 o
b11001100110111011110111011111111 E
b11001100110111011110111011111111 #"
b100010010001000110011 b"
b100010010001000110011 j"
b1000100010101010110011001110111 c"
b1000100010101010110011001110111 v"
b10001000100110011010101010111011 d"
b10001000100110011010101010111011 $#
b11001100110111011110111011111111 e"
b11001100110111011110111011111111 0#
b0 1
b0 +
b0 6
b0 5"
b0 D"
b0 2
b0 ,
b0 7
b10000001000000011000001000000010100000110000001110000100000001001000010100000101100001100000011010000111000001111 0
b10000001000000011000001000000010100000110000001110000100000001001000010100000101100001100000011010000111000001111 4
b10000001000000011000001000000010100000110000001110000100000001001000010100000101100001100000011010000111000001111 >
b10000001000000011000001000000010100000110000001110000100000001001000010100000101100001100000011010000111000001111 6"
b100010010001000110011010001000101010101100110011101111000100010011001101010101011101111001100110111011110111011111111 /
b100010010001000110011010001000101010101100110011101111000100010011001101010101011101111001100110111011110111011111111 3
b100010010001000110011010001000101010101100110011101111000100010011001101010101011101111001100110111011110111011111111 @
b100010010001000110011010001000101010101100110011101111000100010011001101010101011101111001100110111011110111011111111 A
b100010010001000110011010001000101010101100110011101111000100010011001101010101011101111001100110111011110111011111111 ^"
b100010010001000110011010001000101010101100110011101111000100010011001101010101011101111001100110111011110111011111111 `"
1$
1*
#2
b10000001000000011000001000000010100000110000001110000100000001001000010100000101100001100000011010000111000001111 <
b10000001000000011000001000000010100000110000001110000100000001001000010100000101100001100000011010000111000001111 &
b100010010001000110011010001000101010101100110011101111000100010011001101010101011101111001100110111011110111011111111 =
b100010010001000110011010001000101010101100110011101111000100010011001101010101011101111001100110111011110111011111111 )
0$
0*
#3
1$
1*
#4
b1 2
b1 ,
b1 7
b0zzzzzzzzzzzzzzzzzzzzzzzzzzzzzzzzzzzzzzzzzzzzzzzzzzzzzzzzzzzzzzzzzzzzzzzzzzzzzzzzzzzzzzzzzzzzzzzzzzzzzzzzzzzzzzzzzzzzzzzzzzzzzzz .
b0zzzzzzzzzzzzzzzzzzzzzzzzzzzzzzzzzzzzzzzzzzzzzzzzzzzzzzzzzzzzzzzzzzzzzzzzzzzzzzzzzzzzzzzzzzzzzzzzzzzzzzzzzzzzzzzzzzzzzzzzzzzzzzz !
0%
0-
0$
0*
#5
b10 2
b10 ,
b10 7
1$
1*
#6
b100000010000000110000010000000101000001100000011100001000000010010000101000001011000011000000110100001110000011110000 =
b100000010000000110000010000000101000001100000011100001000000010010000101000001011000011000000110100001110000011110000 )
0$
0*
#7
b11001010 X
b11001010 R
b10110111 Z
b10110111 S
b100 \
b1100011110010101011011100000100 G
b1100011110010101011011100000100 P
b100 T
b1001 h
b1001 c
b1010011 j
b1010011 d
b11010000 l
b11010000 e
b1010001 n
b1001010100111101000001010001 H
b1001010100111101000001010001 b
b1010001 f
b11001101 z
b11001101 u
b1100000 |
b1100000 v
b11100000 ~
b11100000 w
b11100111 ""
b11001101011000001110000011100111 I
b11001101011000001110000011100111 t
b11100111 x
b10111010 ."
b10111010 )"
b1110000 0"
b1110000 *"
b11100001 2"
b11100001 +"
b10001100 4"
b1100011110010101011011100000100000010010101001111010000010100011100110101100000111000001110011110111010011100001110000110001100 :
b1100011110010101011011100000100000010010101001111010000010100011100110101100000111000001110011110111010011100001110000110001100 F
b10111010011100001110000110001100 J
b10111010011100001110000110001100 ("
b10001100 ,"
b11010110101010110111011011111110 ?"
b11011010101001100111100011110001 >"
b11010010101011110111001011111010 ="
b1010000 s"
b10000 !#
b11010000 -#
b10010000 9#
b11010110101010100111010011111101 <"
b11010110101010100111010011111101110100101010111101110010111110101101101010100110011110001111000111010110101010110111011011111110 ;
b11010110101010100111010011111101110100101010111101110010111110101101101010100110011110001111000111010110101010110111011011111110 ;"
b10100001010000011110000010000001001000011100000001100001000000011010000001000000111000011000000000100000110000010110000 9
b10100001010000011110000010000001001000011100000001100001000000011010000001000000111000011000000000100000110000010110000 _"
b100000 t"
b10000 u"
b0 r"
b1110000 q"
b100000 p"
b100000011100000000000001010000 f"
b100000011100000000000001010000 k"
b10000000 "#
b1000000 ##
b1000000 ~"
b110000 }"
b1100000 |"
b1100000001100000100000000010000 g"
b1100000001100000100000000010000 w"
b11011 .#
b10000000 /#
b10000000 ,#
b11110000 +#
b10100000 *#
b10100000111100001000000011010000 h"
b10100000111100001000000011010000 %#
b10011011 :#
b11000000 ;#
b11000000 8#
b10110000 7#
b11100000 6#
b100000011100000000000001010000011000000011000001000000000100001010000011110000100000001101000011100000101100001100000010010000 8
b100000011100000000000001010000011000000011000001000000000100001010000011110000100000001101000011100000101100001100000010010000 a"
b11100000101100001100000010010000 i"
b11100000101100001100000010010000 1#
b11010110101010110111011011111110 A"
b10000 M
b10000 W
b100000 N
b100000 Y
b110000 O
b110000 [
b1000000 ^
b1000000 g
b1010000 _
b1010000 i
b1100000 `
b1100000 k
b1110000 a
b1110000 m
b10000000 p
b10000000 y
b10010000 q
b10010000 {
b10100000 r
b10100000 }
b10110000 s
b10110000 !"
b11000000 $"
b11000000 -"
b11010000 %"
b11010000 /"
b11100000 &"
b11100000 1"
b11110000 '"
b11110000 3"
b10000 m"
b100000 n"
b110000 o"
b1000000 x"
b1010000 y"
b1100000 z"
b1110000 {"
b10000000 &#
b10010000 '#
b10100000 (#
b10110000 )#
b11000000 2#
b11010000 3#
b11100000 4#
b11110000 5#
b1000000000000000000000000 @"
b1000000000000000000000000 E"
b100010010001000110011010001000101010101100110011101111000100010011001101010101011101111001100110111011110111011111111 5
b100010010001000110011010001000101010101100110011101111000100010011001101010101011101111001100110111011110111011111111 ?
b100000010000000110000 B
b100000010000000110000 K
b1000000010100000110000001110000 C
b1000000010100000110000001110000 ]
b10000000100100001010000010110000 D
b10000000100100001010000010110000 o
b11000000110100001110000011110000 E
b11000000110100001110000011110000 #"
b100000010000000110000 b"
b100000010000000110000 j"
b1000000010100000110000001110000 c"
b1000000010100000110000001110000 v"
b10000000100100001010000010110000 d"
b10000000100100001010000010110000 $#
b11000000110100001110000011110000 e"
b11000000110100001110000011110000 0#
b1 1
b1 +
b1 6
b1 5"
b1 D"
b11 2
b11 ,
b11 7
b100000010000000110000010000000101000001100000011100001000000010010000101000001011000011000000110100001110000011110000 /
b100000010000000110000010000000101000001100000011100001000000010010000101000001011000011000000110100001110000011110000 3
b100000010000000110000010000000101000001100000011100001000000010010000101000001011000011000000110100001110000011110000 @
b100000010000000110000010000000101000001100000011100001000000010010000101000001011000011000000110100001110000011110000 A
b100000010000000110000010000000101000001100000011100001000000010010000101000001011000011000000110100001110000011110000 ^"
b100000010000000110000010000000101000001100000011100001000000010010000101000001011000011000000110100001110000011110000 `"
1$
1*
#8
b1100011110010101011011100000100000010010101001111010000010100011100110101100000111000001110011110111010011100001110000110001100 =
b1100011110010101011011100000100000010010101001111010000010100011100110101100000111000001110011110111010011100001110000110001100 )
0$
0*
#9
b11111011 V
b11111011 Q
b1110100 X
b1110100 R
b10101001 Z
b10101001 S
b11110010 \
b11111011011101001010100111110010 G
b11111011011101001010100111110010 P
b11110010 T
b1 h
b1 c
b11101101 j
b11101101 d
b1110000 l
b1110000 e
b11010001 n
b1111011010111000011010001 H
b1111011010111000011010001 b
b11010001 f
b10111101 z
b10111101 u
b11010000 |
b11010000 v
b11100001 ~
b11100001 w
b10010100 ""
b10111101110100001110000110010100 I
b10111101110100001110000110010100 t
b10010100 x
b11110100 ."
b11110100 )"
b1010001 0"
b1010001 *"
b11111000 2"
b11111000 +"
b1100100 4"
b11111011011101001010100111110010000000011110110101110000110100011011110111010000111000011001010011110100010100011111100001100100 :
b11111011011101001010100111110010000000011110110101110000110100011011110111010000111000011001010011110100010100011111100001100100 F
b11110100010100011111100001100100 J
b11110100010100011111100001100100 ("
b1100100 ,"
b11010000 s"
b111010 !#
b11001 -#
b1000111 9#
b1100011010100111110000010001100000010010110000011100001000001001100110101110000101101110101000110111010110010101101000011100111 9
b1100011010100111110000010001100000010010110000011100001000001001100110101110000101101110101000110111010110010101101000011100111 _"
b11000110 t"
b1100011 u"
b11010000 r"
b101010 q"
b110000 p"
b110000001010101101000011010000 f"
b110000001010101101000011010000 k"
b10010 "#
b1001 ##
b10010 ~"
b10010101 }"
b1100110 |"
b1100110100101010001001000111010 g"
b1100110100101010001001000111010 w"
b10000001 .#
b11001101 /#
b1000100 ,#
b11010001 +#
b100110 *#
b100110110100010100010000011001 h"
b100110110100010100010000011001 %#
b1101111 :#
b10111010 ;#
b10011100 8#
b11101110 7#
b10010010 6#
b110000001010101101000011010000011001101001010100010010001110100010011011010001010001000001100110010010111011101001110001000111 8
b110000001010101101000011010000011001101001010100010010001110100010011011010001010001000001100110010010111011101001110001000111 a"
b10010010111011101001110001000111 i"
b10010010111011101001110001000111 1#
b1100011 L
b1100011 U
b11001010 M
b11001010 W
b10110111 N
b10110111 Y
b100 O
b100 [
b1001 ^
b1001 g
b1010011 _
b1010011 i
b11010000 `
b11010000 k
b1010001 a
b1010001 m
b11001101 p
b11001101 y
b1100000 q
b1100000 {
b11100000 r
b11100000 }
b11100111 s
b11100111 !"
b10111010 $"
b10111010 -"
b1110000 %"
b1110000 /"
b11100001 &"
b11100001 1"
b10001100 '"
b10001100 3"
b1100011 l"
b11001010 m"
b10110111 n"
b100 o"
b1001 x"
b1010011 y"
b11010000 z"
b1010001 {"
b11001101 &#
b1100000 '#
b11100000 (#
b11100111 )#
b10111010 2#
b1110000 3#
b11100001 4#
b10001100 5#
b1100011110010111011010100000111000011010101011011010110010101101100010101101001111010101110110010110110011111011110111110000011 5
b1100011110010111011010100000111000011010101011011010110010101101100010101101001111010101110110010110110011111011110111110000011 ?
b1100011110010101011011100000100 B
b1100011110010101011011100000100 K
b1001010100111101000001010001 C
b1001010100111101000001010001 ]
b11001101011000001110000011100111 D
b11001101011000001110000011100111 o
b10111010011100001110000110001100 E
b10111010011100001110000110001100 #"
b1100011110010101011011100000100 b"
b1100011110010101011011100000100 j"
b1001010100111101000001010001 c"
b1001010100111101000001010001 v"
b11001101011000001110000011100111 d"
b11001101011000001110000011100111 $#
b10111010011100001110000110001100 e"
b10111010011100001110000110001100 0#
b1100011110010101011011100000100000010010101001111010000010100011100110101100000111000001110011110111010011100001110000110001100 /
b1100011110010101011011100000100000010010101001111010000010100011100110101100000111000001110011110111010011100001110000110001100 3
b1100011110010101011011100000100000010010101001111010000010100011100110101100000111000001110011110111010011100001110000110001100 @
b1100011110010101011011100000100000010010101001111010000010100011100110101100000111000001110011110111010011100001110000110001100 A
b1100011110010101011011100000100000010010101001111010000010100011100110101100000111000001110011110111010011100001110000110001100 ^"
b1100011110010101011011100000100000010010101001111010000010100011100110101100000111000001110011110111010011100001110000110001100 `"
b100 2
b100 ,
b100 7
1$
1*
#10
b11010110101010100111010011111101110100101010111101110010111110101101101010100110011110001111000111010110101010110111011011111110 <
b11010110101010100111010011111101110100101010111101110010111110101101101010100110011110001111000111010110101010110111011011111110 &
b1100011010100111110000010001100000010010110000011100001000001001100110101110000101101110101000110111010110010101101000011100111 =
b1100011010100111110000010001100000010010110000011100001000001001100110101110000101101110101000110111010110010101101000011100111 )
0$
0*
