kairo/AES/state.vcd
$date
	Tue Jun 23 14:57:40 2015
$end
$version
	Icarus Verilog
$end
$timescale
	1ns
$end
$scope module test $end
$var wire 128 ! ENC [127:0] $end
$var reg 128 " IN [127:0] $end
$var reg 128 # KEY [127:0] $end
$var reg 1 $ clk $end
$var reg 1 % reset $end
$scope module round $end
$var wire 128 & EXKEY [127:0] $end
$var wire 128 ' IN [127:0] $end
$var wire 128 ( KEY [127:0] $end
$var wire 128 ) OUT [127:0] $end
$var wire 1 * clk $end
$var wire 8 + count [7:0] $end
$var wire 3 , cs [2:0] $end
$var wire 1 - reset $end
$var reg 128 . ENC [127:0] $end
$var reg 128 / inp [127:0] $end
$var reg 128 0 keyp [127:0] $end
$scope module state $end
$var wire 1 * clk $end
$var wire 1 - res $end
$var reg 8 1 cot [7:0] $end
$var reg 3 2 cs [2:0] $end
$upscope $end
$scope module malch $end
$var wire 128 3 IN [127:0] $end
$var wire 128 4 KEY [127:0] $end
$var wire 128 5 add_out [127:0] $end
$var wire 1 * clk $end
$var wire 8 6 count [7:0] $end
$var wire 3 7 cs [2:0] $end
$var wire 128 8 mix_out [127:0] $end
$var wire 128 9 shi_out [127:0] $end
$var wire 128 : sub_out [127:0] $end
$var wire 128 ; tmp_key [127:0] $end
$var reg 128 < EXKEY [127:0] $end
$var reg 128 = OUT [127:0] $end
$scope module add $end
$var wire 128 > key [127:0] $end
$var wire 128 ? str [127:0] $end
$var wire 128 @ word [127:0] $end
$upscope $end
$scope module sub $end
$var wire 128 A x [127:0] $end
$var wire 32 B x0 [31:0] $end
$var wire 32 C x1 [31:0] $end
$var wire 32 D x2 [31:0] $end
$var wire 32 E x3 [31:0] $end
$var wire 128 F y [127:0] $end
$var wire 32 G y0 [31:0] $end
$var wire 32 H y1 [31:0] $end
$var wire 32 I y2 [31:0] $end
$var wire 32 J y3 [31:0] $end
$scope module sub0 $end
$var wire 32 K x [31:0] $end
$var wire 8 L x0 [7:0] $end
$var wire 8 M x1 [7:0] $end
$var wire 8 N x2 [7:0] $end
$var wire 8 O x3 [7:0] $end
$var wire 32 P y [31:0] $end
$var wire 8 Q y0 [7:0] $end
$var wire 8 R y1 [7:0] $end
$var wire 8 S y2 [7:0] $end
$var wire 8 T y3 [7:0] $end
$scope module sub0 $end
$var wire 8 U x [7:0] $end
$var reg 8 V y [7:0] $end
$upscope $end
$scope module sub1 $end
$var wire 8 W x [7:0] $end
$var reg 8 X y [7:0] $end
$upscope $end
$scope module sub2 $end
$var wire 8 Y x [7:0] $end
$var reg 8 Z y [7:0] $end
$upscope $end
$scope module sub3 $end
$var wire 8 [ x [7:0] $end
$var reg 8 \ y [7:0] $end
$upscope $end
$upscope $end
$scope module sub1 $end
$var wire 32 ] x [31:0] $end
$var wire 8 ^ x0 [7:0] $end
$var wire 8 _ x1 [7:0] $end
$var wire 8 ` x2 [7:0] $end
$var wire 8 a x3 [7:0] $end
$var wire 32 b y [31:0] $end
$var wire 8 c y0 [7:0] $end
$var wire 8 d y1 [7:0] $end
$var wire 8 e y2 [7:0] $end
$var wire 8 f y3 [7:0] $end
$scope module sub0 $end
$var wire 8 g x [7:0] $end
$var reg 8 h y [7:0] $end
$upscope $end
$scope module sub1 $end
$var wire 8 i x [7:0] $end
$var reg 8 j y [7:0] $end
$upscope $end
$scope module sub2 $end
$var wire 8 k x [7:0] $end
$var reg 8 l y [7:0] $end
$upscope $end
$scope module sub3 $end
$var wire 8 m x [7:0] $end
$var reg 8 n y [7:0] $end
$upscope $end
$upscope $end
$scope module sub2 $end
$var wire 32 o x [31:0] $end
$var wire 8 p x0 [7:0] $end
$var wire 8 q x1 [7:0] $end
$var wire 8 r x2 [7:0] $end
$var wire 8 s x3 [7:0] $end
$var wire 32 t y [31:0] $end
$var wire 8 u y0 [7:0] $end
$var wire 8 v y1 [7:0] $end
$var wire 8 w y2 [7:0] $end
$var wire 8 x y3 [7:0] $end
$scope module sub0 $end
$var wire 8 y x [7:0] $end
$var reg 8 z y [7:0] $end
$upscope $end
$scope module sub1 $end
$var wire 8 { x [7:0] $end
$var reg 8 | y [7:0] $end
$upscope $end
$scope module sub2 $end
$var wire 8 } x [7:0] $end
$var reg 8 ~ y [7:0] $end
$upscope $end
$scope module sub3 $end
$var wire 8 !" x [7:0] $end
$var reg 8 "" y [7:0] $end
$upscope $end
$upscope $end
$scope module sub3 $end
$var wire 32 #" x [31:0] $end
$var wire 8 $" x0 [7:0] $end
$var wire 8 %" x1 [7:0] $end
$var wire 8 &" x2 [7:0] $end
$var wire 8 '" x3 [7:0] $end
$var wire 32 (" y [31:0] $end
$var wire 8 )" y0 [7:0] $end
$var wire 8 *" y1 [7:0] $end
$var wire 8 +" y2 [7:0] $end
$var wire 8 ," y3 [7:0] $end
$scope module sub0 $end
$var wire 8 -" x [7:0] $end
$var reg 8 ." y [7:0] $end
$upscope $end
$scope module sub1 $end
$var wire 8 /" x [7:0] $end
$var reg 8 0" y [7:0] $end
$upscope $end
$scope module sub2 $end
$var wire 8 1" x [7:0] $end
$var reg 8 2" y [7:0] $end
$upscope $end
$scope module sub3 $end
$var wire 8 3" x [7:0] $end
$var reg 8 4" y [7:0] $end
$upscope $end
$upscope $end
$upscope $end
$scope module exp $end
$var wire 8 5" count [7:0] $end
$var wire 128 6" in [127:0] $end
$var wire 32 7" in0 [31:0] $end
$var wire 32 8" in1 [31:0] $end
$var wire 32 9" in2 [31:0] $end
$var wire 32 :" in3 [31:0] $end
$var wire 128 ;" out [127:0] $end
$var wire 32 <" out0 [31:0] $end
$var wire 32 =" out1 [31:0] $end
$var wire 32 >" out2 [31:0] $end
$var wire 32 ?" out3 [31:0] $end
$var wire 32 @" rc [31:0] $end
$var wire 32 A" rt [31:0] $end
$var wire 32 B" rw [31:0] $end
$var wire 32 C" sw [31:0] $end
$scope module sub $end
$var wire 32 D" x [31:0] $end
$var wire 8 E" x0 [7:0] $end
$var wire 8 F" x1 [7:0] $end
$var wire 8 G" x2 [7:0] $end
$var wire 8 H" x3 [7:0] $end
$var wire 32 I" y [31:0] $end
$var wire 8 J" y0 [7:0] $end
$var wire 8 K" y1 [7:0] $end
$var wire 8 L" y2 [7:0] $end
$var wire 8 M" y3 [7:0] $end
$scope module sub0 $end
$var wire 8 N" x [7:0] $end
$var reg 8 O" y [7:0] $end
$upscope $end
$scope module sub1 $end
$var wire 8 P" x [7:0] $end
$var reg 8 Q" y [7:0] $end
$upscope $end
$scope module sub2 $end
$var wire 8 R" x [7:0] $end
$var reg 8 S" y [7:0] $end
$upscope $end
$scope module sub3 $end
$var wire 8 T" x [7:0] $end
$var reg 8 U" y [7:0] $end
$upscope $end
$upscope $end
$upscope $end
$scope module shi $end
$var wire 128 V" in [127:0] $end
$var wire 128 W" out [127:0] $end
$upscope $end
$scope module mix $end
$var wire 128 X" in [127:0] $end
$var wire 128 Y" out [127:0] $end
$var wire 32 Z" x0 [31:0] $end
$var wire 32 [" x1 [31:0] $end
$var wire 32 \" x2 [31:0] $end
$var wire 32 ]" x3 [31:0] $end
$var wire 32 ^" y0 [31:0] $end
$var wire 32 _" y1 [31:0] $end
$var wire 32 `" y2 [31:0] $end
$var wire 32 a" y3 [31:0] $end
$scope module mix0 $end
$var wire 32 b" in [31:0] $end
$var wire 32 c" out [31:0] $end
$var wire 8 d" x0 [7:0] $end
$var wire 8 e" x1 [7:0] $end
$var wire 8 f" x2 [7:0] $end
$var wire 8 g" x3 [7:0] $end
$var wire 8 h" y0 [7:0] $end
$var wire 8 i" y1 [7:0] $end
$var wire 8 j" y2 [7:0] $end
$var wire 8 k" y3 [7:0] $end
$scope function FUNC_2 $end
$var reg 8 l" FUNC_2 [7:0] $end
$var reg 8 m" x [7:0] $end
$upscope $end
$upscope $end
$scope module mix1 $end
$var wire 32 n" in [31:0] $end
$var wire 32 o" out [31:0] $end
$var wire 8 p" x0 [7:0] $end
$var wire 8 q" x1 [7:0] $end
$var wire 8 r" x2 [7:0] $end
$var wire 8 s" x3 [7:0] $end
$var wire 8 t" y0 [7:0] $end
$var wire 8 u" y1 [7:0] $end
$var wire 8 v" y2 [7:0] $end
$var wire 8 w" y3 [7:0] $end
$scope function FUNC_2 $end
$var reg 8 x" FUNC_2 [7:0] $end
$var reg 8 y" x [7:0] $end
$upscope $end
$upscope $end
$scope module mix2 $end
$var wire 32 z" in [31:0] $end
$var wire 32 {" out [31:0] $end
$var wire 8 |" x0 [7:0] $end
$var wire 8 }" x1 [7:0] $end
$var wire 8 ~" x2 [7:0] $end
$var wire 8 !# x3 [7:0] $end
$var wire 8 "# y0 [7:0] $end
$var wire 8 ## y1 [7:0] $end
$var wire 8 $# y2 [7:0] $end
$var wire 8 %# y3 [7:0] $end
$scope function FUNC_2 $end
$var reg 8 &# FUNC_2 [7:0] $end
$var reg 8 '# x [7:0] $end
$upscope $end
$upscope $end
$scope module mix3 $end
$var wire 32 (# in [31:0] $end
$var wire 32 )# out [31:0] $end
$var wire 8 *# x0 [7:0] $end
$var wire 8 +# x1 [7:0] $end
$var wire 8 ,# x2 [7:0] $end
$var wire 8 -# x3 [7:0] $end
$var wire 8 .# y0 [7:0] $end
$var wire 8 /# y1 [7:0] $end
$var wire 8 0# y2 [7:0] $end
$var wire 8 1# y3 [7:0] $end
$scope function FUNC_2 $end
$var reg 8 2# FUNC_2 [7:0] $end
$var reg 8 3# x [7:0] $end
$upscope $end
$upscope $end
$upscope $end
$upscope $end
$upscope $end
$upscope $end
$enddefinitions $end
#0
$dumpvars
bx 3#
bx0 2#
bx 1#
bx 0#
bx /#
bx .#
bx -#
bx ,#
bx +#
bx *#
bx )#
bx (#
bx '#
bx0 &#
bx %#
bx $#
bx ##
bx "#
bx !#
bx ~"
bx }"
bx |"
bx {"
bx z"
bx y"
bx0 x"
bx w"
bx v"
bx u"
bx t"
bx s"
bx r"
bx q"
bx p"
bx o"
bx n"
bx m"
bx0 l"
bx k"
bx j"
bx i"
bx h"
bx g"
bx f"
bx e"
bx d"
bx c"
bx b"
bx a"
bx `"
bx _"
bx ^"
bx ]"
bx \"
bx ["
bx Z"
bx Y"
bx X"
bx W"
bx V"
bx U"
bx T"
bx S"
bx R"
bx Q"
bx P"
bx O"
bx N"
bx M"
bx L"
bx K"
bx J"
bx I"
bx H"
bx G"
bx F"
bx E"
bx D"
bx C"
bx B"
bx A"
bx @"
bx ?"
bx >"
bx ="
bx <"
bx ;"
bx :"
bx 9"
bx 8"
bx 7"
bx 6"
bx 5"
bx 4"
bx 3"
bx 2"
bx 1"
bx 0"
bx /"
bx ."
bx -"
bx ,"
bx +"
bx *"
bx )"
bx ("
bx '"
bx &"
bx %"
bx $"
bx #"
bx ""
bx !"
bx ~
bx }
bx |
bx {
bx z
bx y
bx x
bx w
bx v
bx u
bx t
bx s
bx r
bx q
bx p
bx o
bx n
bx m
bx l
bx k
bx j
bx i
bx h
bx g
bx f
bx e
bx d
bx c
bx b
bx a
bx `
bx _
bx ^
bx ]
bx \
bx [
bx Z
bx Y
bx X
bx W
bx V
bx U
bx T
bx S
bx R
bx Q
bx P
bx O
bx N
bx M
bx L
bx K
bx J
bx I
bx H
bx G
bx F
bx E
bx D
bx C
bx B
bx A
bx @
bx ?
bx >
b0xxxxxxxxxxxxxxxxxxxxxxxxxxxxxxxxxxxxxxxxxxxxxxxxxxxxxxxxxxxxxxxxxxxxxxxxxxxxxxxxxxxxxxxxxxxxxxxxxxxxxxxxxxxxxxxxxxxxxxxxxxxxxxx =
b0xxxxxxxxxxxxxxxxxxxxxxxxxxxxxxxxxxxxxxxxxxxxxxxxxxxxxxxxxxxxxxxxxxxxxxxxxxxxxxxxxxxxxxxxxxxxxxxxxxxxxxxxxxxxxxxxxxxxxxxxxxxxxxx <
bx ;
bx :
bx 9
bx 8
bx 7
bx 6
bx 5
bx 4
bx 3
bx 2
bx 1
bx 0
bx /
bx .
1-
bx ,
bx +
0*
b0xxxxxxxxxxxxxxxxxxxxxxxxxxxxxxxxxxxxxxxxxxxxxxxxxxxxxxxxxxxxxxxxxxxxxxxxxxxxxxxxxxxxxxxxxxxxxxxxxxxxxxxxxxxxxxxxxxxxxxxxxxxxxxx )
b10000001000000011000001000000010100000110000001110000100000001001000010100000101100001100000011010000111000001111 (
b100010010001000110011010001000101010101100110011101111000100010011001101010101011101111001100110111011110111011111111 '
b0xxxxxxxxxxxxxxxxxxxxxxxxxxxxxxxxxxxxxxxxxxxxxxxxxxxxxxxxxxxxxxxxxxxxxxxxxxxxxxxxxxxxxxxxxxxxxxxxxxxxxxxxxxxxxxxxxxxxxxxxxxxxxxx &
1%
0$
b10000001000000011000001000000010100000110000001110000100000001001000010100000101100001100000011010000111000001111 #
b100010010001000110011010001000101010101100110011101111000100010011001101010101011101111001100110111011110111011111111 "
bx !
$end
#1
b11010111101010110111011011111110 ?"
b11011011101001100111100011110001 >"
b11010011101011110111001011111010 ="
b11010111101010100111010011111101 <"
b11010111101010100111010011111101110100111010111101110010111110101101101110100110011110001111000111010111101010110111011011111110 ;
b11010111101010100111010011111101110100111010111101110010111110101101101110100110011110001111000111010111101010110111011011111110 ;"
b11010111101010110111011011111110 A"
b11010111 O"
b11010111 J"
b10101011 Q"
b10101011 K"
b1110110 S"
b1110110 L"
b11111110 U"
b11010111101010110111011011111110 C"
b11010111101010110111011011111110 I"
b11111110 M"
b1100011 V
b1100011 Q
b10000010 X
b10000010 R
b10010011 Z
b10010011 S
b11000011 \
b1100011100000101001001111000011 G
b1100011100000101001001111000011 P
b11000011 T
b11011 h
b11011 c
b11111100 j
b11111100 d
b110011 l
b110011 e
b11110101 n
b11011111111000011001111110101 H
b11011111111000011001111110101 b
b11110101 f
b11000100 z
b11000100 u
b11101110 |
b11101110 v
b10101100 ~
b10101100 w
b11101010 ""
b11000100111011101010110011101010 I
b11000100111011101010110011101010 t
b11101010 x
b1001011 ."
b1001011 )"
b11000001 0"
b11000001 *"
b101000 2"
b101000 +"
b10110 4"
b1100011100000101001001111000011000110111111110000110011111101011100010011101110101011001110101001001011110000010010100000010110 :
b1100011100000101001001111000011000110111111110000110011111101011100010011101110101011001110101001001011110000010010100000010110 F
b1001011110000010010100000010110 J
b1001011110000010010100000010110 ("
b10110 ,"
b1010101 k"
b1110111 i"
b0 j"
b10001 w"
b110011 u"
b1000100 v"
b11011101 %#
b11111111 ##
b10001000 $#
b10011001 1#
b10111011 /#
b11001100 0#
b1101 E"
b1101 N"
b1110 F"
b1110 P"
b1111 G"
b1111 R"
b1100 H"
b1100 T"
b100010 h"
b100010011101110000000001010101 ^"
b100010011101110000000001010101 c"
b1100110 t"
b1100110001100110100010000010001 _"
b1100110001100110100010000010001 o"
b10101010 "#
b10101010111111111000100011011101 `"
b10101010111111111000100011011101 {"
b11101110 .#
b100010011101110000000001010101011001100011001101000100000100011010101011111111100010001101110111101110101110111100110010011001 8
b100010011101110000000001010101011001100011001101000100000100011010101011111111100010001101110111101110101110111100110010011001 Y"
b11101110101110111100110010011001 a"
b11101110101110111100110010011001 )#
b1101000011100000111100001100 B"
b1101000011100000111100001100 D"
b10101011010101011111111010001001001100111101110001100111000100011011101001000100111011111001100000100010110011010111011 9
b10101011010101011111111010001001001100111101110001100111000100011011101001000100111011111001100000100010110011010111011 W"
b0 l"
b0 m"
b10001000 x"
b1000100 y"
b1011 &#
b10001000 '#
b10000011 2#
b11001100 3#
b0 L
b0 U
b10001 M
b10001 W
b100010 N
b100010 Y
b110011 O
b110011 [
b1000100 ^
b1000100 g
b1010101 _
b1010101 i
b1100110 `
b1100110 k
b1110111 a
b1110111 m
b10001000 p
b10001000 y
b10011001 q
b10011001 {
b10101010 r
b10101010 }
b10111011 s
b10111011 !"
b11001100 $"
b11001100 -"
b11011101 %"
b11011101 /"
b11101110 &"
b11101110 1"
b11111111 '"
b11111111 3"
b0 d"
b10001 e"
b100010 f"
b110011 g"
b1000100 p"
b1010101 q"
b1100110 r"
b1110111 s"
b10001000 |"
b10011001 }"
b10101010 ~"
b10111011 !#
b11001100 *#
b11011101 +#
b11101110 ,#
b11111111 -#
b0 @"
b10000001000000011 7"
b100000001010000011000000111 8"
b1000000010010000101000001011 9"
b1100000011010000111000001111 :"
b100000010000000110000010000000101000001100000011100001000000010010000101000001011000011000000110100001110000011110000 5
b100000010000000110000010000000101000001100000011100001000000010010000101000001011000011000000110100001110000011110000 ?
b100010010001000110011 B
b100010010001000110011 K
b1000100010101010110011001110111 C
b1000100010101010110011001110111 ]
b10001000100110011010101010111011 D
b10001000100110011010101010111011 o
b11001100110111011110111011111111 E
b11001100110111011110111011111111 #"
b100010010001000110011 Z"
b100010010001000110011 b"
b1000100010101010110011001110111 ["
b1000100010101010110011001110111 n"
b10001000100110011010101010111011 \"
b10001000100110011010101010111011 z"
b11001100110111011110111011111111 ]"
b11001100110111011110111011111111 (#
b0 1
b0 +
b0 6
b0 5"
b0 2
b0 ,
b0 7
b10000001000000011000001000000010100000110000001110000100000001001000010100000101100001100000011010000111000001111 0
b10000001000000011000001000000010100000110000001110000100000001001000010100000101100001100000011010000111000001111 4
b10000001000000011000001000000010100000110000001110000100000001001000010100000101100001100000011010000111000001111 >
b10000001000000011000001000000010100000110000001110000100000001001000010100000101100001100000011010000111000001111 6"
b100010010001000110011010001000101010101100110011101111000100010011001101010101011101111001100110111011110111011111111 /
b100010010001000110011010001000101010101100110011101111000100010011001101010101011101111001100110111011110111011111111 3
b100010010001000110011010001000101010101100110011101111000100010011001101010101011101111001100110111011110111011111111 @
b100010010001000110011010001000101010101100110011101111000100010011001101010101011101111001100110111011110111011111111 A
b100010010001000110011010001000101010101100110011101111000100010011001101010101011101111001100110111011110111011111111 V"
b100010010001000110011010001000101010101100110011101111000100010011001101010101011101111001100110111011110111011111111 X"
1$
1*
#2
b10000001000000011000001000000010100000110000001110000100000001001000010100000101100001100000011010000111000001111 <
b10000001000000011000001000000010100000110000001110000100000001001000010100000101100001100000011010000111000001111 &
b100010010001000110011010001000101010101100110011101111000100010011001101010101011101111001100110111011110111011111111 =
b100010010001000110011010001000101010101100110011101111000100010011001101010101011101111001100110111011110111011111111 )
0$
0*
#3
1$
1*
#4
b1 2
b1 ,
b1 7
b0zzzzzzzzzzzzzzzzzzzzzzzzzzzzzzzzzzzzzzzzzzzzzzzzzzzzzzzzzzzzzzzzzzzzzzzzzzzzzzzzzzzzzzzzzzzzzzzzzzzzzzzzzzzzzzzzzzzzzzzzzzzzzzz .
b0zzzzzzzzzzzzzzzzzzzzzzzzzzzzzzzzzzzzzzzzzzzzzzzzzzzzzzzzzzzzzzzzzzzzzzzzzzzzzzzzzzzzzzzzzzzzzzzzzzzzzzzzzzzzzzzzzzzzzzzzzzzzzzz !
0%
0-
0$
0*
#5
b10 2
b10 ,
b10 7
1$
1*
#6
b100000010000000110000010000000101000001100000011100001000000010010000101000001011000011000000110100001110000011110000 =
b100000010000000110000010000000101000001100000011100001000000010010000101000001011000011000000110100001110000011110000 )
0$
0*
#7
b11001010 X
b11001010 R
b10110111 Z
b10110111 S
b100 \
b1100011110010101011011100000100 G
b1100011110010101011011100000100 P
b100 T
b1001 h
b1001 c
b1010011 j
b1010011 d
b11010000 l
b11010000 e
b1010001 n
b1001010100111101000001010001 H
b1001010100111101000001010001 b
b1010001 f
b11001101 z
b11001101 u
b1100000 |
b1100000 v
b11100000 ~
b11100000 w
b11100111 ""
b11001101011000001110000011100111 I
b11001101011000001110000011100111 t
b11100111 x
b10111010 ."
b10111010 )"
b1110000 0"
b1110000 *"
b11100001 2"
b11100001 +"
b10001100 4"
b1100011110010101011011100000100000010010101001111010000010100011100110101100000111000001110011110111010011100001110000110001100 :
b1100011110010101011011100000100000010010101001111010000010100011100110101100000111000001110011110111010011100001110000110001100 F
b10111010011100001110000110001100 J
b10111010011100001110000110001100 ("
b10001100 ,"
b11010110101010110111011011111110 ?"
b11011010101001100111100011110001 >"
b11010010101011110111001011111010 ="
b1010000 k"
b10000 w"
b11010000 %#
b10010000 1#
b11010110101010100111010011111101 <"
b11010110101010100111010011111101110100101010111101110010111110101101101010100110011110001111000111010110101010110111011011111110 ;
b11010110101010100111010011111101110100101010111101110010111110101101101010100110011110001111000111010110101010110111011011111110 ;"
b10100001010000011110000010000001001000011100000001100001000000011010000001000000111000011000000000100000110000010110000 9
b10100001010000011110000010000001001000011100000001100001000000011010000001000000111000011000000000100000110000010110000 W"
b100000 l"
b10000 m"
b0 j"
b1110000 i"
b100000 h"
b100000011100000000000001010000 ^"
b100000011100000000000001010000 c"
b10000000 x"
b1000000 y"
b1000000 v"
b110000 u"
b1100000 t"
b1100000001100000100000000010000 _"
b1100000001100000100000000010000 o"
b11011 &#
b10000000 '#
b10000000 $#
b11110000 ##
b10100000 "#
b10100000111100001000000011010000 `"
b10100000111100001000000011010000 {"
b10011011 2#
b11000000 3#
b11000000 0#
b10110000 /#
b11100000 .#
b100000011100000000000001010000011000000011000001000000000100001010000011110000100000001101000011100000101100001100000010010000 8
b100000011100000000000001010000011000000011000001000000000100001010000011110000100000001101000011100000101100001100000010010000 Y"
b11100000101100001100000010010000 a"
b11100000101100001100000010010000 )#
b11010110101010110111011011111110 A"
b10000 M
b10000 W
b100000 N
b100000 Y
b110000 O
b110000 [
b1000000 ^
b1000000 g
b1010000 _
b1010000 i
b1100000 `
b1100000 k
b1110000 a
b1110000 m
b10000000 p
b10000000 y
b10010000 q
b10010000 {
b10100000 r
b10100000 }
b10110000 s
b10110000 !"
b11000000 $"
b11000000 -"
b11010000 %"
b11010000 /"
b11100000 &"
b11100000 1"
b11110000 '"
b11110000 3"
b10000 e"
b100000 f"
b110000 g"
b1000000 p"
b1010000 q"
b1100000 r"
b1110000 s"
b10000000 |"
b10010000 }"
b10100000 ~"
b10110000 !#
b11000000 *#
b11010000 +#
b11100000 ,#
b11110000 -#
b1000000000000000000000000 @"
b100010010001000110011010001000101010101100110011101111000100010011001101010101011101111001100110111011110111011111111 5
b100010010001000110011010001000101010101100110011101111000100010011001101010101011101111001100110111011110111011111111 ?
b100000010000000110000 B
b100000010000000110000 K
b1000000010100000110000001110000 C
b1000000010100000110000001110000 ]
b10000000100100001010000010110000 D
b10000000100100001010000010110000 o
b11000000110100001110000011110000 E
b11000000110100001110000011110000 #"
b100000010000000110000 Z"
b100000010000000110000 b"
b1000000010100000110000001110000 ["
b1000000010100000110000001110000 n"
b10000000100100001010000010110000 \"
b10000000100100001010000010110000 z"
b11000000110100001110000011110000 ]"
b11000000110100001110000011110000 (#
b1 1
b1 +
b1 6
b1 5"
b11 2
b11 ,
b11 7
b100000010000000110000010000000101000001100000011100001000000010010000101000001011000011000000110100001110000011110000 /
b100000010000000110000010000000101000001100000011100001000000010010000101000001011000011000000110100001110000011110000 3
b100000010000000110000010000000101000001100000011100001000000010010000101000001011000011000000110100001110000011110000 @
b100000010000000110000010000000101000001100000011100001000000010010000101000001011000011000000110100001110000011110000 A
b100000010000000110000010000000101000001100000011100001000000010010000101000001011000011000000110100001110000011110000 V"
b100000010000000110000010000000101000001100000011100001000000010010000101000001011000011000000110100001110000011110000 X"
1$
1*
#8
b1100011110010101011011100000100000010010101001111010000010100011100110101100000111000001110011110111010011100001110000110001100 =
b1100011110010101011011100000100000010010101001111010000010100011100110101100000111000001110011110111010011100001110000110001100 )
0$
0*
#9
b11111011 V
b11111011 Q
b1110100 X
b1110100 R
b10101001 Z
b10101001 S
b11110010 \
b11111011011101001010100111110010 G
b11111011011101001010100111110010 P
b11110010 T
b1 h
b1 c
b11101101 j
b11101101 d
b1110000 l
b1110000 e
b11010001 n
b1111011010111000011010001 H
b1111011010111000011010001 b
b11010001 f
b10111101 z
b10111101 u
b11010000 |
b11010000 v
b11100001 ~
b11100001 w
b10010100 ""
b10111101110100001110000110010100 I
b10111101110100001110000110010100 t
b10010100 x
b11110100 ."
b11110100 )"
b1010001 0"
b1010001 *"
b11111000 2"
b11111000 +"
b1100100 4"
b11111011011101001010100111110010000000011110110101110000110100011011110111010000111000011001010011110100010100011111100001100100 :
b11111011011101001010100111110010000000011110110101110000110100011011110111010000111000011001010011110100010100011111100001100100 F
b11110100010100011111100001100100 J
b11110100010100011111100001100100 ("
b1100100 ,"
b11010000 k"
b111010 w"
b11001 %#
b1000111 1#
b1100011010100111110000010001100000010010110000011100001000001001100110101110000101101110101000110111010110010101101000011100111 9
b1100011010100111110000010001100000010010110000011100001000001001100110101110000101101110101000110111010110010101101000011100111 W"
b11000110 l"
b1100011 m"
b11010000 j"
b101010 i"
b110000 h"
b110000001010101101000011010000 ^"
b110000001010101101000011010000 c"
b10010 x"
b1001 y"
b10010 v"
b10010101 u"
b1100110 t"
b1100110100101010001001000111010 _"
b1100110100101010001001000111010 o"
b10000001 &#
b11001101 '#
b1000100 $#
b11010001 ##
b100110 "#
b100110110100010100010000011001 `"
b100110110100010100010000011001 {"
b1101111 2#
b10111010 3#
b10011100 0#
b11101110 /#
b10010010 .#
b110000001010101101000011010000011001101001010100010010001110100010011011010001010001000001100110010010111011101001110001000111 8
b110000001010101101000011010000011001101001010100010010001110100010011011010001010001000001100110010010111011101001110001000111 Y"
b10010010111011101001110001000111 a"
b10010010111011101001110001000111 )#
b1100011 L
b1100011 U
b11001010 M
b11001010 W
b10110111 N
b10110111 Y
b100 O
b100 [
b1001 ^
b1001 g
b1010011 _
b1010011 i
b11010000 `
b11010000 k
b1010001 a
b1010001 m
b11001101 p
b11001101 y
b1100000 q
b1100000 {
b11100000 r
b11100000 }
b11100111 s
b11100111 !"
b10111010 $"
b10111010 -"
b1110000 %"
b1110000 /"
b11100001 &"
b11100001 1"
b10001100 '"
b10001100 3"
b1100011 d"
b11001010 e"
b10110111 f"
b100 g"
b1001 p"
b1010011 q"
b11010000 r"
b1010001 s"
b11001101 |"
b1100000 }"
b11100000 ~"
b11100111 !#
b10111010 *#
b1110000 +#
b11100001 ,#
b10001100 -#
b1100011110010111011010100000111000011010101011011010110010101101100010101101001111010101110110010110110011111011110111110000011 5
b1100011110010111011010100000111000011010101011011010110010101101100010101101001111010101110110010110110011111011110111110000011 ?
b1100011110010101011011100000100 B
b1100011110010101011011100000100 K
b1001010100111101000001010001 C
b1001010100111101000001010001 ]
b11001101011000001110000011100111 D
b11001101011000001110000011100111 o
b10111010011100001110000110001100 E
b10111010011100001110000110001100 #"
b1100011110010101011011100000100 Z"
b1100011110010101011011100000100 b"
b1001010100111101000001010001 ["
b1001010100111101000001010001 n"
b11001101011000001110000011100111 \"
b11001101011000001110000011100111 z"
b10111010011100001110000110001100 ]"
b10111010011100001110000110001100 (#
b1100011110010101011011100000100000010010101001111010000010100011100110101100000111000001110011110111010011100001110000110001100 /
b1100011110010101011011100000100000010010101001111010000010100011100110101100000111000001110011110111010011100001110000110001100 3
b1100011110010101011011100000100000010010101001111010000010100011100110101100000111000001110011110111010011100001110000110001100 @
b1100011110010101011011100000100000010010101001111010000010100011100110101100000111000001110011110111010011100001110000110001100 A
b1100011110010101011011100000100000010010101001111010000010100011100110101100000111000001110011110111010011100001110000110001100 V"
b1100011110010101011011100000100000010010101001111010000010100011100110101100000111000001110011110111010011100001110000110001100 X"
b100 2
b100 ,
b100 7
1$
1*
#10
b11010110101010100111010011111101110100101010111101110010111110101101101010100110011110001111000111010110101010110111011011111110 <
b11010110101010100111010011111101110100101010111101110010111110101101101010100110011110001111000111010110101010110111011011111110 &
b1100011010100111110000010001100000010010110000011100001000001001100110101110000101101110101000110111010110010101101000011100111 =
b1100011010100111110000010001100000010010110000011100001000001001100110101110000101101110101000110111010110010101101000011100111 )
0$
0*
