Trivium/temp/state.vcd
$date
	Thu Aug 27 13:06:43 2015
$end
$version
	Icarus Verilog
$end
$timescale
	1ns
$end
$scope module test $end
$var wire 288 ! STRM [287:0] $end
$var reg 80 " IV [79:0] $end
$var reg 80 # KEY [79:0] $end
$var reg 1 $ clk $end
$var reg 1 % reset $end
$scope module ENCRIPT $end
$var wire 80 & IV [79:0] $end
$var wire 80 ' KEY [79:0] $end
$var wire 1 ( clk $end
$var wire 1 ) reset $end
$var reg 288 * SET [287:0] $end
$var reg 288 + STRM [287:0] $end
$var reg 12 , count [11:0] $end
$upscope $end
$upscope $end
$enddefinitions $end
#0
$dumpvars
bx ,
bx +
bx *
1)
0(
b0 '
b100100011010001010110011110001001101010111100110111101111 &
1%
0$
b0 #
b100100011010001010110011110001001101010111100110111101111 "
bx !
$end
#1
b111000000000000000000000000000000000000000000000000000000000000000000000000000000000000000000000000000000000000000000000000000000000000000010010001101000101011001111000100110101011110011011110111100000000000000000000000000000000000000000000000000000000000000000000000000000000000000000000 *
b0 ,
1$
1(
#2
0$
0(
#3
b111000000000000000000000000000000000000000000000000000000000000000000000000000000000000000000000000000000000000000000000000000000000000000010010001101000101011001111000100110101011110011011110111100000000000000000000000000000000000000000000000000000000000000000000000000000000000000000000 *
1$
1(
#4
b1 ,
b111000000000000000000000000000000000000000000000000000000000000000000000000000000000000000000000000000000000000000000000000000000000000000010010001101000101011001111000100110101011110011011110111100000000000000000000000000000000000000000000000000000000000000000000000000000000000000000000 *
0%
0)
0$
0(
#5
b110000000000000000000000000000000000000000000000000000000000000000000000000000000000000000000000000000000000000000000000000000000000000000100100011010001010110011110001001101010111100110111101111000000000000000000000000000000000000000000000000000000000000000000000000000000000000000000000 *
b10 ,
1$
1(
#6
0$
0(
#7
b100000000000000000000000000000000000000000000000000000000000000000000000000000000000000000000000000000000000000000000000000000000000000001001000110100010101100111100010011010101111001101111011110000000000000000000000000000000000000000000000000000000000000000000000000000000000000000000001 *
b11 ,
1$
1(
#8
0$
0(
#9
b10010001101000101011001111000100110101011110011011110111100000000000000000000000000000000000000000000000000000000000000000000000000000000000000000000011 *
b100 ,
1$
1(
#10
0$
0(
#11
b100100011010001010110011110001001101010111100110111101111000000000000000000000000000000000000000000000000000000000000000000000000000000000000000000000110 *
b101 ,
1$
1(
#12
0$
0(
#13
b1001000110100010101100111100010011010101111001101111011110000000000000000000000000000000000000000000000000000000000000000000000000000000000000000000001100 *
b110 ,
1$
1(
#14
0$
0(
#15
b10010001101000101011001111000100110101011110011011110111100000000000000000000000000000000000000000000000000000000000000000000000000000000000000000000011000 *
b111 ,
1$
1(
#16
0$
0(
#17
b100100011010001010110011110001001101010111100110111101111000000000000000000000000000000000000000000000000000000000000000000000000000000000000000000000110000 *
b1000 ,
1$
1(
#18
0$
0(
#19
b1001000110100010101100111100010011010101111001101111011110000000000000000000000000000000000000000000000000000000000000000000000000000000000000000000001100000 *
b1001 ,
1$
1(
#20
0$
0(
#21
b10010001101000101011001111000100110101011110011011110111100000000000000000000000000000000000000000000000000000000000000000000000000000000000000000000011000000 *
b1010 ,
1$
1(
#22
0$
0(
#23
b100100011010001010110011110001001101010111100110111101111000000000000000000000000000000000000000000000000000000000000000000000000000000000000000000000110000000 *
b1011 ,
1$
1(
#24
0$
0(
#25
b1001000110100010101100111100010011010101111001101111011110000000000000000000000000000000000000000000000000000000000000000000000000000000000000000000001100000000 *
b1100 ,
1$
1(
#26
0$
0(
#27
b10010001101000101011001111000100110101011110011011110111100000000000000000000000000000000000000000000000000000000000000000000000000000000000000000000011000000000 *
b1101 ,
1$
1(
#28
0$
0(
#29
b100100011010001010110011110001001101010111100110111101111000000000000000000000000000000000000000000000000000000000000000000000000000000000000000000000110000000000 *
b1110 ,
1$
1(
#30
0$
0(
#31
b1000000000000001001000110100010101100111100010011010101111001101111011110000000000000000000000000000000000000000000000000000000000000000000000000000000000000000000001100000000000 *
b1111 ,
1$
1(
#32
0$
0(
#33
b10000000000000010010001101000101011001111000100110101011110011011110111100000000000000000000000000000000000000000000000000000000000000000000000000000000000000000000011000000000000 *
b10000 ,
1$
1(
#34
0$
0(
#35
b100000000000000100100011010001010110011110001001101010111100110111101111000000000000000000000000000000000000000000000000000000000000000000000000000000000000000000000110000000000000 *
b10001 ,
1$
1(
#36
0$
0(
#37
b1001000000000001001000110100010101100111100010011010101111001101111011110000000000000000000000000000000000000000000000000000000000000000000000000000000000000000000001100000000000000 *
b10010 ,
1$
1(
#38
0$
0(
#39
b10010000000000010010001101000101011001111000100110101011110011011110111100000000000000000000000000000000000000000000000000000000000000000000000000000000000000000000011000000000000000 *
b10011 ,
1$
1(
#40
0$
0(
#41
b100100000000000100100011010001010110011110001001101010111100110111101111000000000000000000000000000000000000000000000000000000000000000000000000000000000000000000000110000000000000000 *
b10100 ,
1$
1(
#42
0$
0(
#43
b1001000000000001001000110100010101100111100010011010101111001101111011110000000000000000000000000000000000000000000000000000000000000000000000000000000000000000000001100000000000000000 *
b10101 ,
1$
1(
#44
0$
0(
#45
b10010001000000010010001101000101011001111000100110101011110011011110111100000000000000000000000000000000000000000000000000000000000000000000000000000000000000000000011000000000000000000 *
b10110 ,
1$
1(
#46
0$
0(
#47
b100100011000000100100011010001010110011110001001101010111100110111101111000000000000000000000000000000000000000000000000000000000000000000000000000000000000000000000110000000000000000000 *
b10111 ,
1$
1(
#48
0$
0(
#49
b1001000110000001001000110100010101100111100010011010101111001101111011110000000000000000000001000000000000000000000000000000000000000000000000000000000000000000000001100000000000000000000 *
b11000 ,
1$
1(
#50
0$
0(
#51
b10010001101000010010001101000101011001111000100110101011110011011110111100000000000000000000010000000000000000000000000000000000000000000000000000000000000000000000011000000000000000000000 *
b11001 ,
1$
1(
#52
0$
0(
#53
b100100011010000100100011010001010110011110001001101010111100110111101111000000000000000000000100000000000000000000000000000000000000000000000000000000000000000000000110000000000000000000000 *
b11010 ,
1$
1(
#54
0$
0(
#55
b1001000110100001001000110100010101100111100010011010101111001101111011110000000000000000000001001000000000000000000000000000000000000000000000000000000000000000000001100000000000000000000000 *
b11011 ,
1$
1(
#56
0$
0(
#57
b10010001101000010010001101000101011001111000100110101011110011011110111100000000000000000000010010000000000000000000000000000000000000000000000000000000000000000000011000000000000000000000000 *
b11100 ,
1$
1(
#58
0$
0(
#59
b100100011010001100100011010001010110011110001001101010111100110111101111000000000000000000000100100000000000000000000000000000000000000000000000000000000000000000000110000000000000000000000000 *
b11101 ,
1$
1(
#60
0$
0(
#61
b1001000110100011001000110100010101100111100010011010101111001101111011110000000000000000000001001000000000000000000000000000000000000000000000000000000000000000000001100000000000000000000000000 *
b11110 ,
1$
1(
#62
0$
0(
#63
b10010001101000111010001101000101011001111000100110101011110011011110111100000000000000000000010010001000000000000000000000000000000000000000000000000000000000000000011000000000000000000000000000 *
b11111 ,
1$
1(
#64
0$
0(
#65
b100100011010001110100011010001010110011110001001101010111100110111101111000000000000000000000100100011000000000000000000000000000000000000000000000000000000000000000110000000000000000000000000000 *
b100000 ,
1$
1(
#66
0$
0(
#67
b1001000110100011100000110100010101100111100010011010101111001101111011110000000000000000000001001000110000000000000000000000000000000000000000000000000000000000000001100000000000000000000000000000 *
b100001 ,
1$
1(
#68
0$
0(
#69
b10010001101000111001001101000101011001111000100110101011110011011110111100000000000000000000010010001101000000000000000000000000000000000000000000000000000000000000011000000000000000000000000000000 *
b100010 ,
1$
1(
#70
0$
0(
#71
b100100011010001110010011010001010110011110001001101010111100110111101111000000000000000000000100100011010000000000000000000000000000000000000000000000000000000000000110000000000000000000000000000000 *
b100011 ,
1$
1(
#72
0$
0(
#73
b1001000110100011100101110100010101100111100010011010101111001101111011110000000000000000000001001000110100000000000000000000000000000000000000000000000000000000000001100000000000000000000000000000000 *
b100100 ,
1$
1(
#74
0$
0(
#75
b10010001101000111001010101000101011001111000100110101011110011011110111100000000000000000000010010001101000000000000000000000000000000000000000000000000000000000000011000000000000000000000000000000000 *
b100101 ,
1$
1(
#76
0$
0(
#77
b100100011010001110010100010001010110011110001001101010111100110111101111000000000000000000000100100011010001000000000000000000000000000000000000000000000000000000000110000000000000000000000000000000000 *
b100110 ,
1$
1(
#78
0$
0(
#79
b1001000110100011100101001100010101100111100010011010101111001101111011110000000000000000000001001000110100010000000000000000000000000000000000000000000000000000000001100000000000000000000000000000000000 *
b100111 ,
1$
1(
#80
0$
0(
#81
b10010001101000111001010010000101011001111000100110101011110011011110111100000000000000000000010010001101000101000000000000000000000000000000000000000000000000000000011000000000000000000000000000000000000 *
b101000 ,
1$
1(
#82
0$
0(
#83
b100100011010001110010100100001010110011110001001101010111100110111101111000000000000000000000100100011010001010000000000000000000000000000000000000000000000000000000110000000000000000000000000000000000000 *
b101001 ,
1$
1(
#84
0$
0(
#85
b1001000110100011100101001000010101100111100010011010101111001101111011110000000000000000000001001000110100010101000000000000000000000000000000000000000000000000000001100000000000000000000000000000000000000 *
b101010 ,
1$
1(
#86
0$
0(
#87
b10010001101000111001010010000101011001111000100110101011110011011110111100000000000000000000010010001101000101011000000000000000000000000000000000000000000000000000011000000000000000000000000000000000000000 *
b101011 ,
1$
1(
#88
0$
0(
#89
b100100011010001110010100100000010110011110001001101010111100110111101111000000000000000000000100100011010001010110000000000000000000000000000000000000000000000000000110000000000000000000000000000000000000000 *
b101100 ,
1$
1(
#90
0$
0(
#91
b1001000110100011100101001000000101100111100010011010101111001101111011110000000000000000000001001000110100010101100000000000000000000000000000000000000000000000000001100000000000000000000000000000000000000000 *
b101101 ,
1$
1(
#92
0$
0(
#93
b10010001101000111001010010000001011001111000100110101011110011011110111100000000000000000000010010001101000101011001000000000000000000000000000000000000000000000000011000000000000000000000000000000000000000000 *
b101110 ,
1$
1(
#94
0$
0(
#95
b100100011010001110010100100000010110011110001001101010111100110111101111000000000000000000000100100011010001010110011000000000000000000000000000000000000000000000000110000000000000000000000000000000000000000000 *
b101111 ,
1$
1(
#96
0$
0(
#97
b1001000110100011100101001000000100100111100010011010101111001101111011110000000000000000000001001000110100010101100111000000000000000000000000000000000000000000000001100000000000000000000000000000000000000000000 *
b110000 ,
1$
1(
#98
0$
0(
#99
b10010001101000111001010010000001001001111000100110101011110011011110111100000000000000000000010010001101000101011001111000000000000000000000000000000000000000000000011000000000000000000000000000000000000000000000 *
b110001 ,
1$
1(
#100
0$
0(
#101
b100100011010001110010100100000010011011110001001101010111100110111101111000000000000000000000100100011010001010110011110000000000000000000000000000000000000000000000110000000000000000000000000000000000000000000000 *
b110010 ,
1$
1(
#102
0$
0(
#103
b1001000110100011100101001000000100111111100010011010101111001101111011110000000000000000000001001000110100010101100111100000000000000000000000000000000000000000000001100000000000000000000000000000000000000000000000 *
b110011 ,
1$
1(
#104
0$
0(
#105
b10010001101000111001010010000001001111111000100110101011110011011110111100000000000000000000010010001101000101011001111000000000000000000000000000000000000000000000011000000000000000000000000000000000000000000000000 *
b110100 ,
1$
1(
#106
0$
0(
#107
b100100011010001110010100100000010011110110001001101010111100110111101111000000000000000000000100100011010001010110011110001000000000000000000000000000000000000000000110000000000000000000000000000000000000000000000000 *
b110101 ,
1$
1(
#108
0$
0(
#109
b1001000110100011100101001000000100111100100010011010101111001101111011110000000000000000000001001000110100010101100111100010000000000000000000000000000000000000000001100000000000000000000000000000000000000000000000000 *
b110110 ,
1$
1(
#110
0$
0(
#111
b10010001101000111001010010000001001111000000100110101011110011011110111100000000000000000000010010001101000101011001111000100000000000000000000000000000000000000000011000000000000000000000000000000000000000000000000000 *
b110111 ,
1$
1(
#112
0$
0(
#113
b100100011010001110010100100000010011110001001001101010111100110111101111000000000000000000000100100011010001010110011110001001000000000000000000000000000000000000000110000000000000000000000000000000000000000000000000000 *
b111000 ,
1$
1(
#114
0$
0(
#115
b1001000110100011100101001000000100111100011010011010101111001101111011110000000000000000000001001000110100010101100111100010011000000000000000000000000000000000000001100000000000000000000000000000000000000000000000000000 *
b111001 ,
1$
1(
#116
0$
0(
#117
b10010001101000111001010010000001001111000110100110101011110011011110111100000000000000000000010010001101000101011001111000100110000000000000000000000000000000000000011000000000000000000000000000000000000000000000000000000 *
b111010 ,
1$
1(
#118
0$
0(
#119
b100100011010001110010100100000010011110001101001101010111100110111101111000000000000000000000100100011010001010110011110001001101000000000000000000000000000000000000110000000000000000000000000000000000000000000000000000000 *
b111011 ,
1$
1(
#120
0$
0(
#121
b1001000110100011100101001000000100111100011011011010101111001101111011110000000000000000000001001000110100010101100111100010011010000000000000000000000000000000000001100000000000000000000000000000000000000000000000000000000 *
b111100 ,
1$
1(
#122
0$
0(
#123
b10010001101000111001010010000001001111000110110110101011110011011110111100000000000000000000010010001101000101011001111000100110101000000000000000000000000000000000011000000000000000000000000000000000000000000000000000000000 *
b111101 ,
1$
1(
#124
0$
0(
#125
b100100011010001110010100100000010011110001101101101010111100110111101111000000000000000000000100100011010001010110011110001001101010000000000000000000000000000000000110000000000000000000000000000000000000000000000000000000000 *
b111110 ,
1$
1(
#126
0$
0(
#127
b1001000110100011100101001000000100111100011011010010101111001101111011110000000000000000000001001000110100010101100111100010011010101000000000000000000000000000000001100000000000000000000000000000000000000000000000000000000000 *
b111111 ,
1$
1(
#128
0$
0(
#129
b10010001101000111001010010000001001111000110110101101011110011011110111100000000000000000000010010001101000101011001111000100110101011000000000000000000000000000000011000000000000000000000000000000000000000000000000000000000000 *
b1000000 ,
1$
1(
#130
0$
0(
#131
b100100011010001110010100100000010011110001101101010010111100110111101111000000000000000000000100100011010001010110011110001001101010111000000000000000000000000000000110000000000000000000000000000000000000000000000000000000000000 *
b1000001 ,
1$
1(
#132
0$
0(
#133
b1001000110100011100101001000000100111100011011010101101111001101111011110000000000000000000001001000110100010101100111100010011010101111000000000000000000000000000001100000000000000000000000000000000000000000000000000000000000000 *
b1000010 ,
1$
1(
#134
0$
0(
#135
b10010001101000111001010010000001001111000110110101011011110011011110111100000000000000000000010010001101000101011001111000100110101011110000000000000000000000000000011000000000000000000000000000000000000000000000000000000000000000 *
b1000011 ,
1$
1(
#136
0$
0(
#137
b100100011010001110010100100000010011110001101101010110111100110111101111000000000000000000000100100011010001010110011110001001101010111100000000000000000000000000000110000000000000000000000000000000000000000000000000000000000000000 *
b1000100 ,
1$
1(
#138
0$
0(
#139
b1001000110100011100101001000000100111100011011010101101111001101111011110000000000000000000001001000110100010101100111100010011010101111000000000000000000000000000001100000000000000000000000000000000000000000000000000000000000000000 *
b1000101 ,
1$
1(
#140
0$
0(
#141
b10010001101000111001010010000001001111000110110101011011110011011110111100000000000000000000010010001101000101011001111000100110101011110000000000000000000000000000011000000000000000000000000000000000000000000000000000000000000000000 *
b1000110 ,
1$
1(
#142
0$
0(
#143
b100100011010001110010100100000010011110001101101010110110100110111101111000000000000000000000100100011010001010110011110001001101010111100000000000000000000000000000110000000000000000000000000000000000000000000000000000000000000000000 *
b1000111 ,
1$
1(
#144
0$
0(
#145
b1001000110100011100101001000000100111100011011010101101101001101111011110000000000000000000001001000110100010101100111100010011010101111000001000000000000000000000001100000000000000000000000000000000000000000000000000000000000000000001 *
b1001000 ,
1$
1(
#146
0$
0(
#147
b10010001101000111001010010000001001111000110110101011011010011011110111100000000000000000000010010001101000101011001111000100110101011110000011000000000000000000000011000000000000000000000000000000000000000000000000000000000000000000011 *
b1001001 ,
1$
1(
#148
0$
0(
#149
b100100011010001110010100100000010011110001101101010110110101110111101111000000000000000000000100100011010001010110011110001001101010111100000111000000000000000000000110000000000000000000000000000000000000000000000000000000000000000000110 *
b1001010 ,
1$
1(
#150
0$
0(
#151
b1001000110100011100101001000000100111100011011010101101101011101111011110000000000000000000001001000110100010101100111100010011010101111000001111000000000000000000001100000000000000000000000000000000000000000000000000000000000000000001100 *
b1001011 ,
1$
1(
#152
0$
0(
#153
b10010001101000111001010010000001001111000110110101011011010111011110111100000000000000000000010010001101000101011001111000100110101011110000011110000000000000000000011000000000000000000000000000000000000000000000000000000000000000000011000 *
b1001100 ,
1$
1(
#154
0$
0(
#155
b100100011010001110010100100000010011110001101101010110110101111111101111000000000000000000000100100011010001010110011110001001101010111100000111101000000000000000000110000000000000000000000000000000000000000000000000000000000000000000110000 *
b1001101 ,
1$
1(
#156
0$
0(
#157
b1001000110100011100101001000000100111100011011010101101101011110111011110000000000000000000001001000110100010101100111100010011010101111000001111011000000000000000001100000000000000000000000000000000000000000000000000000000000000000001100000 *
b1001110 ,
1$
1(
#158
0$
0(
#159
b10010001101000111001010010000001001111000110110101011011010111100110111100000000000000000000010010001101000101011001111000100110101011110000011110111000000000000000011000000000000000000000000000000000000000000000000000000000000000000011000000 *
b1001111 ,
1$
1(
#160
0$
0(
#161
b100100011010001110010100100000010011110001101101010110110101111001101111000000000000000000000100100011010001010110011110001001101010111100000111101111000000000000000110000000000000000000000000000000000000000000000000000000000000000000110000000 *
b1010000 ,
1$
1(
#162
0$
0(
#163
b1001000110100011100101001000000100111100011011010101101101011110011011110000000000000000000001001000110100010101100111100010011010101111000001111011110000000000000001100000000000000000000000000000000000000000000000000000000000000000001100000001 *
b1010001 ,
1$
1(
#164
0$
0(
#165
b10010001101000111001010010000001001111000110110101011011010111100111111100000000000000000000010010001101000101011001111000100110101011110000011110111100000000000000011000000000000000000000000000000000000000000000000000000000000000000011000000010 *
b1010010 ,
1$
1(
#166
0$
0(
#167
b100100011010001110010100100000010011110001101101010110110101111001110111000000000000000000000100100011010001010110011110001001101010111100000111101111000000000000000110000000000000000000000000000000000000000000000000000000000000000000110000000100 *
b1010011 ,
1$
1(
#168
0$
0(
#169
b1001000110100011100101001000000100111100011011010101101101011110011100110000000000000000000001001000110100010101100111100010011010101111000001111011110000000000000001100000000000000000000000000000000000000000000000000000000000000000001100000001001 *
b1010100 ,
1$
1(
#170
0$
0(
#171
b10010001101000111001010010000001001111000110110101011011010111100111001100000000000000000000010010001101000101011001111000100110101011110000011110111100000000000000011000000000000000000000000000000000000000000000000000000000000000000011000000010010 *
b1010101 ,
1$
1(
#172
0$
0(
#173
b100100011010001110010100100000010011110001101101010110110101111001110011000000000000000000000100100011010001010110011110001001101010111100000111101111000000000000000110000000000000000000000000000000000000000000000000000000000000000000110000000100100 *
b1010110 ,
1$
1(
#174
0$
0(
#175
b1001000110100011100101001000000100111100011011010101101101011110011100110000000000000000000001001000110100010101100111100010011010101111000001111011110000000000000001100000000000000000000000000000000000000000000000000000000000000000001100000001001000 *
b1010111 ,
1$
1(
#176
0$
0(
#177
b10010001101000111001010010000001001111000110110101011011010111100111001100000000000000000000010010001101000101011001111000100110101011110000011110111100000000000000011000000000000000000000000000000000000000000000000000000000000000000011000000010010001 *
b1011000 ,
1$
1(
#178
0$
0(
#179
b100100011010001110010100100000010011110001101101010110110101111001110011000000000000000000000100100011010001010110011110001001101010111100000111101111000000000000000110000000000000000000000000000000000000000000000000000000000000000000110000000100100011 *
b1011001 ,
1$
1(
#180
0$
0(
#181
b1001000110100011100101001000000100111100011011010101101101011110011100110000000000000000000001001000110100010101100111100010011010101111000001111011110000000000000001100000000000000000000000000000000000000000000000000000000000000000001100000001001000110 *
b1011010 ,
1$
1(
#182
0$
0(
#183
b10010001101000111001010010000001001111000110110101011011010111100111001100000000000000000000010010001101000101011001111000100110101011110000011110111100000000000000011000000000000000000000000000000000000000000000000000000000000000000011000000010010001101 *
b1011011 ,
1$
1(
#184
0$
0(
#185
b100100011010001110010100100000010011110001101101010110110101111001110011000000000000000000000100100011010001010110011110001001101010111100000111101111000000000000000110000000000000000000000000000000000000000000000000000000000000000000110000000100100011010 *
b1011100 ,
1$
1(
#186
0$
0(
#187
b1001000110100011100101001000000100111100011011010101101101011110011100110000001000000000000001001000110100010101100111100010011010101111000001111011110000000000000001100000000000000000000000000000000000000000000000000000000000000000001100000001001000110100 *
b1011101 ,
1$
1(
#188
0$
0(
#189
b10010001101000111001010010000001001111000110110101011011010111100111001100000010000000000000010010001101000101011001111000100110101011110000011110111100000000000000011000000000000000000000000000000000000000000000000000000000000000000011000000010010001101000 *
b1011110 ,
1$
1(
#190
0$
0(
#191
b100100011010001110010100100000010011110001101101010110110101111001110011000000100000000000000100100011010001010110011110001001101010111100000111101111000000000000001110000000000000000000000000000000000000000000000000000000000000000000110000000100100011010001 *
b1011111 ,
1$
1(
#192
0$
0(
#193
b1001000110100011100101001000000100111100011011010101101101011110011100110000001001000000000001001000110100010101100111100010011010101111000001111011110000000000000011100000000000000000000000000000000000000000000000000000000000000000001100000001001000110100011 *
b1100000 ,
1$
1(
#194
0$
0(
#195
b10010001101000111001010010000001001111000110110101011011010111100111001100000010010000000000010010001101000101011001111000100110101011110000011110111100000000000000111000000000000000000000000000000000000000000000000000000000000000000011000000010010001101000111 *
b1100001 ,
1$
1(
#196
0$
0(
#197
b100100011010001110010100100000010011110001101101010110110101111001110011000000100100000000000100100011010001010110011110001001101010111100000111101111000000000000001110000000000000000000000000000000000000000000000000000000000000000000110000000100100011010001110 *
b1100010 ,
1$
1(
#198
0$
0(
#199
b1001000110100011100101001000000100111100011011010101101101011110011100110000001001000000000001001000110100010101100111100010011010101111000001111011110000000000000011100000000000000000000000000000000000000000000000000000000000000000001100000001001000110100011100 *
b1100011 ,
1$
1(
#200
0$
0(
#201
b10010001101000111001010010000001001111000110110101011011010111100111001100000010010001000000010010001101000101011001111000100110101011110000011110111100000000000000111000000000000000000000000000000000000000000000000000000000000000000011000000010010001101000111001 *
b1100100 ,
1$
1(
#202
0$
0(
#203
b100100011010001110010100100000010011110001101101010110110101111001110011000000100100011000000100100011010001010110011110001001101010111100000111101111000000000000001110000000000000000000000000000000000000000000000000000000000000000000110000000100100011010001110010 *
b1100101 ,
1$
1(
#204
0$
0(
#205
b1001000110100011100101001000000100111100011011010101101101011110011100110000001001000111000001001000110100010101100111100010011010101111000001111011110000000000000011100001000000000000000000000000000000000000000000000000000000000000001100000001001000110100011100101 *
b1100110 ,
1$
1(
#206
0$
0(
#207
b10010001101000111001010010000001001111000110110101011011010111100111001100000010010001111000010010001101000101011001111000100110101011110000011110111100000000000000111000010000000000000000000000000000000000000000000000000000000000000011000000010010001101000111001010 *
b1100111 ,
1$
1(
#208
0$
0(
#209
b100100011010001110010100100000010011110001101101010110110101111001110011000000100100011110000100100011010001010110011110001001101010111100000111101111000000000000001110000100000000000000000000000000000000000000000000000000000000000000110000000100100011010001110010100 *
b1101000 ,
1$
1(
#210
0$
0(
#211
b1001000110100011100101001000000100111100011011010101101101011110011100110000001001000111101001001000110100010101100111100010011010101111000001111011110000000000000011100001001000000000000000000000000000000000000000000000000000000000001100000001001000110100011100101001 *
b1101001 ,
1$
1(
#212
0$
0(
#213
b10010001101000111001010010000001001111000110110101011011010111100111001100000010010001111010010010001101000101011001111000100110101011110000011110111100000000000000111000010010000000000000000000000000000000000000000000000000000000000011000000010010001101000111001010010 *
b1101010 ,
1$
1(
#214
0$
0(
#215
b100100011010001110010100100000010011110001101101010110110101111001110011000000100100011110101100100011010001010110011110001001101010111100000111101111000000000000001110000100100000000000000000000000000000000000000000000000000000000000110000000100100011010001110010100100 *
b1101011 ,
1$
1(
#216
0$
0(
#217
b1001000110100011100101001000000100111100011011010101101101011110011100110000001001000111101011001000110100010101100111100010011010101111000001111011110000000000000011100001001000000000000000000000000000000000000000000000000000000000001100000001001000110100011100101001000 *
b1101100 ,
1$
1(
#218
0$
0(
#219
b10010001101000111001010010000001001111000110110101011011010111100111001100000010010001111010110010001101000101011001111000100110101011110000011110111100000000000000111000010010001000000000000000000000000000000000000000000000000000000011000000010010001101000111001010010000 *
b1101101 ,
1$
1(
#220
0$
0(
#221
b100100011010001110010100100000010011110001101101010110110101111001110011000000100100011110101101100011010001010110011110001001101010111100000111101111000000000000001110000100100011000000000000000000000000000000000000000000000000000000110000000100100011010001110010100100000 *
b1101110 ,
1$
1(
#222
0$
0(
#223
b1001000110100011100101001000000100111100011011010101101101011110011100110000001001000111101011010000110100010101100111100010011010101111000001111011110000000000000011100001001000110000000000000000000000000000000000000000000000000000001100000001001000110100011100101001000000 *
b1101111 ,
1$
1(
#224
0$
0(
#225
b10010001101000111001010010000001001111000110110101011011010111100111001100000010010001111010110100001101000101011001111000100110101011110000011110111100000000000000111000010010001101000000000000000000000000000000000000000000000000000011000000010010001101000111001010010000001 *
b1110000 ,
1$
1(
#226
0$
0(
#227
b100100011010001110010100100000010011110001101101010110110101111001110011000000100100011110101101000011010001010110011110001001101010111100000111101111000000000000001110000100100011010000000000000000000000000000000000000000000000000000110000000100100011010001110010100100000010 *
b1110001 ,
1$
1(
#228
0$
0(
#229
b1001000110100011100101001000000100111100011011010101101101011110011100110000001001000111101011010001110100010101100111100010011010101111000001111011110000000000000011100001001000110100000000000000000000000000000000000000000000000000001100000001001000110100011100101001000000100 *
b1110010 ,
1$
1(
#230
0$
0(
#231
b10010001101000111001010010000001001111000110110101011011010111100111001100000010010001111010110100010101000101011001111000100110101011110000011110111100000000000000111000010010001101000000000000000000000000000000000000000000000000000011000000010010001101000111001010010000001001 *
b1110011 ,
1$
1(
#232
0$
0(
#233
b100100011010001110010100100000010011110001101101010110110101111001110011000000100100011110101101000101010001010110011110001001101010111100000111101111000000000000001110000100100011010001000000000000000000000000000000000000000000000000110000000100100011010001110010100100000010011 *
b1110100 ,
1$
1(
#234
0$
0(
#235
b1001000110100011100101001000000100111100011011010101101101011110011100110000001001000111101011010001010100010101100111100010011010101111000001111011110000000000000011100001001000110100010000000000000000000000000000000000000000000000001100000001001000110100011100101001000000100111 *
b1110101 ,
1$
1(
#236
0$
0(
#237
b10010001101000111001010010000001001111000110110101011011010111100111001100000010010001111010110100010101000101011001111000100110101011110000011110111100000000000000111000010010001101000101000000000000000000000000000000000000000000000011000000010010001101000111001010010000001001111 *
b1110110 ,
1$
1(
#238
0$
0(
#239
b100100011010001110010100100000010011110001101101010110110101111001110011000000100100011110101101000101010001010110011110001001101010111100000111101111000000000000001110000100100011010001010000000000000000000000000000000000000000000000110000000100100011010001110010100100000010011110 *
b1110111 ,
1$
1(
#240
0$
0(
#241
b1001000110100011100101001000000100111100011011010101101101011110011100110000001001000111101011010001010100010101100111100010011010101111000001111011110000000000000011100001001000110100010101000000000000000000000000000000000000000000001100000001001000110100011100101001000000100111100 *
b1111000 ,
1$
1(
#242
0$
0(
#243
b10010001101000111001010010000001001111000110110101011011010111100111001100000010010001111010110100010101001101011001111000100110101011110000011110111100000000000000111000010010001101000101011000000000000000000000000000000000000000000011000000010010001101000111001010010000001001111000 *
b1111001 ,
1$
1(
#244
0$
0(
#245
b100100011010001110010100100000010011110001101101010110110101111001110011000000100100011110101101000101010010010110011110001001101010111100000111101111000000000000001110000100100011010001010110000000000000000000000000000000000000000000110000000100100011010001110010100100000010011110001 *
b1111010 ,
1$
1(
#246
0$
0(
#247
b1001000110100011100101001000000100111100011011010101101101011110011100110000001001000111101011010001010100101101100111100010011010101111000001111011110000000000000011100001001000110100010101100000000000000000000000000000000000000000001100000001001000110100011100101001000000100111100011 *
b1111011 ,
1$
1(
#248
0$
0(
#249
b10010001101000111001010010000001001111000110110101011011010111100111001100000010010001111010110100010101001011011001111000100110101011110000011110111100000000000000111000010010001101000101011001000000000000000000000000000000000000000011000000010010001101000111001010010000001001111000110 *
b1111100 ,
1$
1(
#250
0$
0(
#251
b100100011010001110010100100000010011110001101101010110110101111001110011000000100100011110101101000101010010110110011110001001101010111100000111101111000000000000001110000100100011010001010110011000000000000000000000000000000000000000110000000100100011010001110010100100000010011110001101 *
b1111101 ,
1$
1(
#252
0$
0(
#253
b1000110100011100101001000000100111100011011010101101101011110011100110000001001000111101011010001010100101101100111100010011010101111000001111011110000000000000011100001001000110100010101100111000000000000000000000000000000000000001100000001001000110100011100101001000000100111100011010 *
b1111110 ,
1$
1(
#254
0$
0(
#255
b10001101000111001010010000001001111000110110101011011010111100111001100000010010001111010110100010101001011011001111000100110101011110000011110111100000000000000111000010010001101000101011001111000000000000000000000000000000000000011000000010010001101000111001010010000001001111000110100 *
b1111111 ,
1$
1(
#256
0$
0(
#257
b100011010001110010100100000010011110001101101010110110101111001110011000000100100011110101101000101010010110111011110001001101010111100000111101111000000000000001110000100100011010001010110011110000000000000000000000000000000000000110000000100100011010001110010100100000010011110001101001 *
b10000000 ,
1$
1(
#258
0$
0(
#259
b110100011100101001000000100111100011011010101101101011110011100110000001001000111101011010001010100101101111111100010011010101111000001111011110000000000000011100001001000110100010101100111100000000000000000000000000000000000001100000001001000110100011100101001000000100111100011010011 *
b10000001 ,
1$
1(
#260
0$
0(
#261
b1101000111001010010000001001111000110110101011011010111100111001100000010010001111010110100010101001011011111111000100110101011110000011110111100000000000000111000010010001101000101011001111000000000000000000000000000000000000011000000010010001101000111001010010000001001111000110100111 *
b10000010 ,
1$
1(
#262
0$
0(
#263
b11010001110010100100000010011110001101101010110110101111001110011000000100100011110101101000101010010110111110110001001101010111100000111101111000000000000001110000100100011010001010110011110001000000000000000000000000000000000110000000100100011010001110010100100000010011110001101001110 *
b10000011 ,
1$
1(
#264
0$
0(
#265
b110100011100101001000000100111100011011010101101101011110011100110000001001000111101011010001010100101101111100100010011010101111000001111011110000000000000011100001001000110100010101100111100010000000000000000000000000000000001100000001001000110100011100101001000000100111100011010011100 *
b10000100 ,
1$
1(
#266
0$
0(
#267
b101000111001010010000001001111000110110101011011010111100111001100000010010001111010110100010101001011011111001000100110101011110000011110111100000000000000111000010010001101000101011001111000100000000000000000000000000000000011000000010010001101000111001010010000001001111000110100111000 *
b10000101 ,
1$
1(
#268
0$
0(
#269
b10001110010100100000010011110001101101010110110101111001110011000000100100011110101101000101010010110111110011001001101010111100000111101111000000000000001110000100100011010001010110011110001001000000000000000000000000000000110000000100100011010001110010100100000010011110001101001110001 *
b10000110 ,
1$
1(
#270
0$
0(
